<?xml version="1.0" standalone="no"?>
<!DOCTYPE svg PUBLIC "-//W3C//DTD SVG 1.1//EN" "http://www.w3.org/Graphics/SVG/1.1/DTD/svg11.dtd" >
<svg xmlns="http://www.w3.org/2000/svg" xmlns:xlink="http://www.w3.org/1999/xlink" version="1.1">
<metadata>
Created by FontForge 20190801 at Mon Sep  5 10:57:37 2016
 By Unknown
Copyright \(c\) 2016 by Chris Simpson.
</metadata>
<defs>
<font id="Metropolis-Regular" horiz-adv-x="638" >
  <font-face 
    font-family="Metropolis"
    font-weight="400"
    font-stretch="normal"
    units-per-em="1000"
    panose-1="0 0 5 0 0 0 0 0 0 0"
    ascent="795"
    descent="-205"
    x-height="517"
    cap-height="687"
    bbox="-175 -275 1121 965"
    underline-thickness="20"
    underline-position="-133"
    stemh="67"
    stemv="75"
    unicode-range="U+0020-2212"
  />
<missing-glyph horiz-adv-x="500" 
d="M410 795v-1000h-317v1000h317zM333 728h-165v-33h65v-37h-66v-33h166v33h-66v37h66v33zM267 599h-100v-104h166v34h-66v70zM233 565v-36h-33v36h33zM333 468h-166v-33h66v-37h-66v-33h100v70h66v33zM333 408h-33v-66h-133v-34h166v100zM333 286h-100v-56h34v23h33v-47
h-100v80h-33v-113h166v113zM333 113h-166v-113h166v113zM300 80v-47h-100v47h100zM333 -23h-166v-33h70l-70 -47v-33h166v33h-102l70 47h32v33z" />
    <glyph glyph-name=".notdef" horiz-adv-x="500" 
d="M410 795v-1000h-317v1000h317zM333 728h-165v-33h65v-37h-66v-33h166v33h-66v37h66v33zM267 599h-100v-104h166v34h-66v70zM233 565v-36h-33v36h33zM333 468h-166v-33h66v-37h-66v-33h100v70h66v33zM333 408h-33v-66h-133v-34h166v100zM333 286h-100v-56h34v23h33v-47
h-100v80h-33v-113h166v113zM333 113h-166v-113h166v113zM300 80v-47h-100v47h100zM333 -23h-166v-33h70l-70 -47v-33h166v33h-102l70 47h32v33z" />
    <glyph glyph-name="A" unicode="A" horiz-adv-x="755" 
d="M638 0l-69 156h-383l-69 -156h-85l303 687h85l303 -687h-85zM218 230h319l-159 361z" />
    <glyph glyph-name="Aacute" unicode="&#xc1;" horiz-adv-x="755" 
d="M547 872l-142 -126h-58l121 144zM638 0l-69 156h-383l-69 -156h-85l303 687h85l303 -687h-85zM218 230h319l-159 361z" />
    <glyph glyph-name="Abreve" unicode="&#x102;" horiz-adv-x="755" 
d="M523 819c-40 -40 -93 -60 -146 -60s-105 20 -146 60l47 47c27 -26 64 -42 99 -42s72 16 99 42zM638 0l-69 156h-383l-69 -156h-85l303 687h85l303 -687h-85zM218 230h319l-159 361z" />
    <glyph glyph-name="Acircumflex" unicode="&#xc2;" horiz-adv-x="755" 
d="M377 832l-78 -86h-57l100 137h70l102 -137h-58zM638 0l-69 156h-383l-69 -156h-85l303 687h85l303 -687h-85zM218 230h319l-159 361z" />
    <glyph glyph-name="Adieresis" unicode="&#xc4;" horiz-adv-x="755" 
d="M281 767c-26 0 -46 21 -46 46c0 24 20 46 46 46c25 0 46 -22 46 -46c0 -25 -21 -46 -46 -46zM473 767c-26 0 -46 21 -46 46c0 24 20 46 46 46c25 0 46 -22 46 -46c0 -25 -21 -46 -46 -46zM638 0l-69 156h-383l-69 -156h-85l303 687h85l303 -687h-85zM218 230h319
l-159 361z" />
    <glyph glyph-name="Agrave" unicode="&#xc0;" horiz-adv-x="755" 
d="M408 746h-58l-142 126l79 18zM638 0l-69 156h-383l-69 -156h-85l303 687h85l303 -687h-85zM218 230h319l-159 361z" />
    <glyph glyph-name="Amacron" unicode="&#x100;" horiz-adv-x="755" 
d="M532 819v-55h-310v55h310zM638 0l-69 156h-383l-69 -156h-85l303 687h85l303 -687h-85zM218 230h319l-159 361z" />
    <glyph glyph-name="Aogonek" unicode="&#x104;" horiz-adv-x="755" 
d="M770 -95l32 -49c-23 -19 -52 -29 -84 -29c-64 0 -109 40 -109 107c0 27 11 51 28 68l-68 154h-383l-69 -156h-85l303 687h85l303 -687c-34 0 -58 -24 -58 -57c0 -35 21 -57 58 -57c21 0 37 8 47 19zM218 230h319l-159 361z" />
    <glyph glyph-name="Aring" unicode="&#xc5;" horiz-adv-x="755" 
d="M377 759c-57 0 -103 46 -103 103s46 103 103 103s103 -46 103 -103s-46 -103 -103 -103zM377 921c-32 0 -59 -27 -59 -59s27 -59 59 -59s59 27 59 59s-27 59 -59 59zM638 0l-69 156h-383l-69 -156h-85l303 687h85l303 -687h-85zM218 230h319l-159 361z" />
    <glyph glyph-name="Atilde" unicode="&#xc3;" horiz-adv-x="755" 
d="M312 811c-26 0 -42 -20 -50 -68l-46 7c10 76 41 119 96 119c59 0 88 -66 129 -66c26 0 42 20 50 68l46 -7c-10 -76 -41 -119 -96 -119c-59 0 -88 66 -129 66zM638 0l-69 156h-383l-69 -156h-85l303 687h85l303 -687h-85zM218 230h319l-159 361z" />
    <glyph glyph-name="AE" unicode="&#xc6;" horiz-adv-x="1024" 
d="M969 613h-414v-226h373v-74h-373v-239h414v-74h-493v156h-264l-90 -156h-90l396 687h541v-74zM255 230h221v383z" />
    <glyph glyph-name="B" unicode="B" horiz-adv-x="682" 
d="M94 0v687h315c111 0 189 -71 189 -171c0 -73 -36 -115 -98 -151c79 -40 125 -102 125 -177c0 -110 -85 -188 -204 -188h-327zM172 396h217c76 0 130 46 130 110s-54 110 -130 110h-217v-220zM172 71h229c85 0 145 53 145 127s-60 127 -145 127h-229v-254z" />
    <glyph glyph-name="C" unicode="C" horiz-adv-x="680" 
d="M404 -12c-190 0 -352 163 -352 356s162 355 352 355c95 0 183 -40 247 -105l-53 -54c-50 53 -119 87 -194 87c-148 0 -273 -130 -273 -283c0 -154 125 -284 273 -284c75 0 144 34 194 87l53 -54c-64 -64 -152 -105 -247 -105z" />
    <glyph glyph-name="Cacute" unicode="&#x106;" horiz-adv-x="680" 
d="M304 746l121 144l79 -18l-142 -126h-58zM404 -12c-190 0 -352 163 -352 356s162 355 352 355c95 0 183 -40 247 -105l-53 -54c-50 53 -119 87 -194 87c-148 0 -273 -130 -273 -283c0 -154 125 -284 273 -284c75 0 144 34 194 87l53 -54c-64 -64 -152 -105 -247 -105z" />
    <glyph glyph-name="Ccaron" unicode="&#x10c;" horiz-adv-x="680" 
d="M349 746l-100 137h57l78 -86l79 86h58l-102 -137h-70zM404 -12c-190 0 -352 163 -352 356s162 355 352 355c95 0 183 -40 247 -105l-53 -54c-50 53 -119 87 -194 87c-148 0 -273 -130 -273 -283c0 -154 125 -284 273 -284c75 0 144 34 194 87l53 -54
c-64 -64 -152 -105 -247 -105z" />
    <glyph glyph-name="Ccedilla" unicode="&#xc7;" horiz-adv-x="680" 
d="M651 93c-60 -60 -141 -100 -230 -105l-14 -34c4 1 7 1 11 1c40 0 69 -27 69 -66c0 -49 -43 -81 -98 -81c-35 0 -68 12 -88 28l19 42c20 -16 43 -23 65 -23c29 0 50 16 50 38c0 19 -12 34 -39 34c-12 0 -25 -4 -34 -11l-16 17l24 57c-175 18 -318 173 -318 354
c0 193 162 355 352 355c95 0 183 -40 247 -105l-53 -54c-50 53 -119 87 -194 87c-148 0 -273 -130 -273 -283c0 -154 125 -284 273 -284c75 0 144 34 194 87z" />
    <glyph glyph-name="D" unicode="D" horiz-adv-x="762" 
d="M94 0v687h232c218 0 372 -142 372 -343s-154 -344 -372 -344h-232zM172 71h154c172 0 293 113 293 273c0 159 -121 272 -293 272h-154v-545z" />
    <glyph glyph-name="Eth" unicode="&#xd0;" horiz-adv-x="779" 
d="M343 687c218 0 372 -142 372 -343s-154 -344 -372 -344h-232v313h-69v74h69v300h232zM343 71c172 0 293 113 293 273c0 159 -121 272 -293 272h-154v-229h202l-1 -74h-201v-242h154z" />
    <glyph glyph-name="Dcaron" unicode="&#x10e;" horiz-adv-x="762" 
d="M291 746l-100 137h57l78 -86l79 86h58l-102 -137h-70zM94 0v687h232c218 0 372 -142 372 -343s-154 -344 -372 -344h-232zM172 71h154c172 0 293 113 293 273c0 159 -121 272 -293 272h-154v-545z" />
    <glyph glyph-name="Dcroat" unicode="&#x110;" horiz-adv-x="779" 
d="M343 687c218 0 372 -142 372 -343s-154 -344 -372 -344h-232v313h-69v74h69v300h232zM343 71c172 0 293 113 293 273c0 159 -121 272 -293 272h-154v-229h202l-1 -74h-201v-242h154z" />
    <glyph glyph-name="E" unicode="E" horiz-adv-x="627" 
d="M572 613h-414v-226h373v-74h-373v-239h414v-74h-493v687h493v-74z" />
    <glyph glyph-name="Eacute" unicode="&#xc9;" horiz-adv-x="627" 
d="M446 872l-142 -126h-58l121 144zM572 613h-414v-226h373v-74h-373v-239h414v-74h-493v687h493v-74z" />
    <glyph glyph-name="Ecaron" unicode="&#x11a;" horiz-adv-x="627" 
d="M361 746h-70l-100 137h57l78 -86l79 86h58zM572 613h-414v-226h373v-74h-373v-239h414v-74h-493v687h493v-74z" />
    <glyph glyph-name="Ecircumflex" unicode="&#xca;" horiz-adv-x="627" 
d="M326 832l-78 -86h-57l100 137h70l102 -137h-58zM572 613h-414v-226h373v-74h-373v-239h414v-74h-493v687h493v-74z" />
    <glyph glyph-name="Edieresis" unicode="&#xcb;" horiz-adv-x="627" 
d="M230 767c-26 0 -46 21 -46 46c0 24 20 46 46 46c25 0 46 -22 46 -46c0 -25 -21 -46 -46 -46zM422 767c-26 0 -46 21 -46 46c0 24 20 46 46 46c25 0 46 -22 46 -46c0 -25 -21 -46 -46 -46zM572 613h-414v-226h373v-74h-373v-239h414v-74h-493v687h493v-74z" />
    <glyph glyph-name="Edotaccent" unicode="&#x116;" horiz-adv-x="627" 
d="M326 767c-26 0 -46 21 -46 46c0 24 20 46 46 46c25 0 46 -22 46 -46c0 -25 -21 -46 -46 -46zM572 613h-414v-226h373v-74h-373v-239h414v-74h-493v687h493v-74z" />
    <glyph glyph-name="uni1EB8" unicode="&#x1eb8;" horiz-adv-x="627" 
d="M572 613h-414v-226h373v-74h-373v-239h414v-74h-493v687h493v-74zM326 -80c25 0 46 -22 46 -46c0 -25 -21 -46 -46 -46c-26 0 -46 21 -46 46c0 24 20 46 46 46z" />
    <glyph glyph-name="Egrave" unicode="&#xc8;" horiz-adv-x="627" 
d="M396 746h-58l-142 126l79 18zM572 613h-414v-226h373v-74h-373v-239h414v-74h-493v687h493v-74z" />
    <glyph glyph-name="Emacron" unicode="&#x112;" horiz-adv-x="627" 
d="M481 819v-55h-310v55h310zM572 613h-414v-226h373v-74h-373v-239h414v-74h-493v687h493v-74z" />
    <glyph glyph-name="Eogonek" unicode="&#x118;" horiz-adv-x="627" 
d="M572 613h-414v-226h373v-74h-373v-239h414v-74h-79c-34 0 -58 -24 -58 -57c0 -35 21 -57 58 -57c21 0 37 8 47 19l32 -49c-23 -19 -52 -29 -84 -29c-64 0 -109 40 -109 107c0 26 11 49 26 66h-326v687h493v-74z" />
    <glyph glyph-name="uni1EBC" unicode="&#x1ebc;" horiz-adv-x="627" 
d="M261 811c-26 0 -42 -20 -50 -68l-46 7c10 76 41 119 96 119c59 0 88 -66 129 -66c26 0 42 20 50 68l46 -7c-10 -76 -41 -119 -96 -119c-59 0 -88 66 -129 66zM572 613h-414v-226h373v-74h-373v-239h414v-74h-493v687h493v-74z" />
    <glyph glyph-name="F" unicode="F" horiz-adv-x="609" 
d="M572 613h-414v-226h373v-74h-373v-313h-79v687h493v-74z" />
    <glyph glyph-name="G" unicode="G" horiz-adv-x="745" 
d="M396 288v74h275v-269c-64 -64 -172 -105 -267 -105c-190 0 -352 163 -352 356s162 355 352 355c95 0 203 -40 267 -105l-53 -54c-50 53 -139 87 -214 87c-148 0 -273 -130 -273 -283c0 -154 125 -284 273 -284c64 0 138 25 189 64v164h-197z" />
    <glyph glyph-name="Gbreve" unicode="&#x11e;" horiz-adv-x="745" 
d="M550 819c-40 -40 -93 -60 -146 -60s-105 20 -146 60l47 47c27 -26 64 -42 99 -42s72 16 99 42zM396 288v74h275v-269c-64 -64 -172 -105 -267 -105c-190 0 -352 163 -352 356s162 355 352 355c95 0 203 -40 267 -105l-53 -54c-50 53 -139 87 -214 87
c-148 0 -273 -130 -273 -283c0 -154 125 -284 273 -284c64 0 138 25 189 64v164h-197z" />
    <glyph glyph-name="Gcommaaccent" unicode="&#x122;" horiz-adv-x="745" 
d="M396 288v74h275v-269c-64 -64 -172 -105 -267 -105c-190 0 -352 163 -352 356s162 355 352 355c95 0 203 -40 267 -105l-53 -54c-50 53 -139 87 -214 87c-148 0 -273 -130 -273 -283c0 -154 125 -284 273 -284c64 0 138 25 189 64v164h-197zM401 -82c32 0 52 -28 52 -68
c0 -33 -15 -61 -65 -125l-32 23c23 26 38 52 44 79c-25 0 -45 21 -45 46c0 24 20 45 46 45z" />
    <glyph glyph-name="H" unicode="H" horiz-adv-x="719" 
d="M562 687h78v-687h-78v313h-405v-313h-78v687h78v-300h405v300z" />
    <glyph glyph-name="I" unicode="I" horiz-adv-x="236" 
d="M79 0v687h78v-687h-78z" />
    <glyph glyph-name="Iacute" unicode="&#xcd;" horiz-adv-x="236" 
d="M88 746l121 144l79 -18l-142 -126h-58zM79 0v687h78v-687h-78z" />
    <glyph glyph-name="Icircumflex" unicode="&#xce;" horiz-adv-x="236" 
d="M-17 746l100 137h70l102 -137h-58l-79 86l-78 -86h-57zM79 0v687h78v-687h-78z" />
    <glyph glyph-name="Idieresis" unicode="&#xcf;" horiz-adv-x="236" 
d="M22 767c-26 0 -46 21 -46 46c0 24 20 46 46 46c25 0 46 -22 46 -46c0 -25 -21 -46 -46 -46zM214 767c-26 0 -46 21 -46 46c0 24 20 46 46 46c25 0 46 -22 46 -46c0 -25 -21 -46 -46 -46zM79 0v687h78v-687h-78z" />
    <glyph glyph-name="Idotaccent" unicode="&#x130;" horiz-adv-x="236" 
d="M118 767c-26 0 -46 21 -46 46c0 24 20 46 46 46c25 0 46 -22 46 -46c0 -25 -21 -46 -46 -46zM79 0v687h78v-687h-78z" />
    <glyph glyph-name="Igrave" unicode="&#xcc;" horiz-adv-x="236" 
d="M90 746l-142 126l79 18l121 -144h-58zM79 0v687h78v-687h-78z" />
    <glyph glyph-name="Imacron" unicode="&#x12a;" horiz-adv-x="236" 
d="M-37 764v55h310v-55h-310zM79 0v687h78v-687h-78z" />
    <glyph glyph-name="Iogonek" unicode="&#x12e;" horiz-adv-x="236" 
d="M204 -95l32 -49c-23 -19 -52 -29 -84 -29c-64 0 -109 40 -109 107c0 31 15 59 36 75v678h78v-687c-34 0 -58 -24 -58 -57c0 -35 21 -57 58 -57c21 0 37 8 47 19z" />
    <glyph glyph-name="J" unicode="J" horiz-adv-x="540" 
d="M237 -12c-81 0 -169 47 -211 114l57 56c27 -58 91 -99 154 -99c81 0 139 68 139 165v463h78v-463c0 -138 -90 -236 -217 -236z" />
    <glyph glyph-name="K" unicode="K" horiz-adv-x="660" 
d="M92 0v687h78v-380l348 380h103l-289 -314l308 -373h-101l-261 320l-108 -114v-206h-78z" />
    <glyph glyph-name="Kcommaaccent" unicode="&#x136;" horiz-adv-x="660" 
d="M92 0v687h78v-380l348 380h103l-289 -314l308 -373h-101l-261 320l-108 -114v-206h-78zM328 -275l-32 23c23 26 38 52 44 79c-25 0 -45 21 -45 46c0 24 20 45 46 45c32 0 52 -28 52 -68c0 -33 -15 -61 -65 -125z" />
    <glyph glyph-name="L" unicode="L" horiz-adv-x="555" 
d="M146 74h375v-74h-453v687h78v-613z" />
    <glyph glyph-name="Lacute" unicode="&#x139;" horiz-adv-x="555" 
d="M278 872l-142 -126h-58l121 144zM146 74h375v-74h-453v687h78v-613z" />
    <glyph glyph-name="Lcaron" unicode="&#x13d;" horiz-adv-x="555" 
d="M266 608c-25 0 -45 21 -45 46c0 24 20 45 46 45c32 0 52 -28 52 -68c0 -33 -15 -61 -65 -125l-32 23c23 26 38 52 44 79zM146 74h375v-74h-453v687h78v-613z" />
    <glyph glyph-name="Lslash" unicode="&#x141;" horiz-adv-x="607" 
d="M198 74h375v-74h-453v277l-83 -43v75l83 43v335h78v-295l138 71v-75l-138 -71v-243z" />
    <glyph glyph-name="M" unicode="M" horiz-adv-x="854" 
d="M94 0v687h78l255 -479l255 479h78v-687h-78v519l-255 -479l-255 479v-519h-78z" />
    <glyph glyph-name="N" unicode="N" horiz-adv-x="770" 
d="M94 0v687h78l426 -559v559h78v-687h-78l-426 559v-559h-78z" />
    <glyph glyph-name="Nacute" unicode="&#x143;" horiz-adv-x="770" 
d="M305 746l121 144l79 -18l-142 -126h-58zM94 0v687h78l426 -559v559h78v-687h-78l-426 559v-559h-78z" />
    <glyph glyph-name="Ncaron" unicode="&#x147;" horiz-adv-x="770" 
d="M350 746l-100 137h57l78 -86l79 86h58l-102 -137h-70zM94 0v687h78l426 -559v559h78v-687h-78l-426 559v-559h-78z" />
    <glyph glyph-name="Ncommaaccent" unicode="&#x145;" horiz-adv-x="770" 
d="M94 0v687h78l426 -559v559h78v-687h-78l-426 559v-559h-78zM372 -275l-32 23c23 26 38 52 44 79c-25 0 -45 21 -45 46c0 24 20 45 46 45c32 0 52 -28 52 -68c0 -33 -15 -61 -65 -125z" />
    <glyph glyph-name="Ntilde" unicode="&#xd1;" horiz-adv-x="770" 
d="M449 745c-59 0 -88 66 -129 66c-26 0 -42 -20 -50 -68l-46 7c10 76 41 119 96 119c59 0 88 -66 129 -66c26 0 42 20 50 68l46 -7c-10 -76 -41 -119 -96 -119zM94 0v687h78l426 -559v559h78v-687h-78l-426 559v-559h-78z" />
    <glyph glyph-name="O" unicode="O" horiz-adv-x="807" 
d="M404 -12c-190 0 -352 163 -352 356s162 355 352 355c191 0 351 -162 351 -355s-160 -356 -351 -356zM404 60c148 0 272 130 272 284c0 153 -124 283 -272 283s-273 -130 -273 -283c0 -154 125 -284 273 -284z" />
    <glyph glyph-name="Oacute" unicode="&#xd3;" horiz-adv-x="807" 
d="M374 746l121 144l79 -18l-142 -126h-58zM404 -12c-190 0 -352 163 -352 356s162 355 352 355c191 0 351 -162 351 -355s-160 -356 -351 -356zM404 60c148 0 272 130 272 284c0 153 -124 283 -272 283s-273 -130 -273 -283c0 -154 125 -284 273 -284z" />
    <glyph glyph-name="Ocircumflex" unicode="&#xd4;" horiz-adv-x="807" 
d="M269 746l100 137h70l102 -137h-58l-79 86l-78 -86h-57zM404 -12c-190 0 -352 163 -352 356s162 355 352 355c191 0 351 -162 351 -355s-160 -356 -351 -356zM404 60c148 0 272 130 272 284c0 153 -124 283 -272 283s-273 -130 -273 -283c0 -154 125 -284 273 -284z" />
    <glyph glyph-name="Odieresis" unicode="&#xd6;" horiz-adv-x="807" 
d="M308 767c-26 0 -46 21 -46 46c0 24 20 46 46 46c25 0 46 -22 46 -46c0 -25 -21 -46 -46 -46zM500 767c-26 0 -46 21 -46 46c0 24 20 46 46 46c25 0 46 -22 46 -46c0 -25 -21 -46 -46 -46zM404 -12c-190 0 -352 163 -352 356s162 355 352 355c191 0 351 -162 351 -355
s-160 -356 -351 -356zM404 60c148 0 272 130 272 284c0 153 -124 283 -272 283s-273 -130 -273 -283c0 -154 125 -284 273 -284z" />
    <glyph glyph-name="Ograve" unicode="&#xd2;" horiz-adv-x="807" 
d="M378 746l-142 126l79 18l121 -144h-58zM404 -12c-190 0 -352 163 -352 356s162 355 352 355c191 0 351 -162 351 -355s-160 -356 -351 -356zM404 60c148 0 272 130 272 284c0 153 -124 283 -272 283s-273 -130 -273 -283c0 -154 125 -284 273 -284z" />
    <glyph glyph-name="Ohungarumlaut" unicode="&#x150;" horiz-adv-x="807" 
d="M264 745l121 145l79 -18l-142 -127h-58zM464 745l121 143l79 -18l-142 -125h-58zM404 -12c-190 0 -352 163 -352 356s162 355 352 355c191 0 351 -162 351 -355s-160 -356 -351 -356zM404 60c148 0 272 130 272 284c0 153 -124 283 -272 283s-273 -130 -273 -283
c0 -154 125 -284 273 -284z" />
    <glyph glyph-name="Omacron" unicode="&#x14c;" horiz-adv-x="807" 
d="M249 764v55h310v-55h-310zM404 -12c-190 0 -352 163 -352 356s162 355 352 355c191 0 351 -162 351 -355s-160 -356 -351 -356zM404 60c148 0 272 130 272 284c0 153 -124 283 -272 283s-273 -130 -273 -283c0 -154 125 -284 273 -284z" />
    <glyph glyph-name="Oslash" unicode="&#xd8;" horiz-adv-x="807" 
d="M659 586c59 -64 96 -149 96 -242c0 -193 -160 -356 -351 -356c-76 0 -148 26 -207 70l-51 -58h-85l88 101c-60 64 -97 150 -97 243c0 193 162 355 352 355c77 0 149 -26 207 -70l51 58h85zM131 344c0 -70 26 -136 68 -186l363 415c-45 34 -100 54 -158 54
c-148 0 -273 -130 -273 -283zM404 60c148 0 272 130 272 284c0 70 -26 135 -68 185l-362 -415c45 -34 100 -54 158 -54z" />
    <glyph glyph-name="Otilde" unicode="&#xd5;" horiz-adv-x="807" 
d="M468 745c-59 0 -88 66 -129 66c-26 0 -42 -20 -50 -68l-46 7c10 76 41 119 96 119c59 0 88 -66 129 -66c26 0 42 20 50 68l46 -7c-10 -76 -41 -119 -96 -119zM404 -12c-190 0 -352 163 -352 356s162 355 352 355c191 0 351 -162 351 -355s-160 -356 -351 -356zM404 60
c148 0 272 130 272 284c0 153 -124 283 -272 283s-273 -130 -273 -283c0 -154 125 -284 273 -284z" />
    <glyph glyph-name="OE" unicode="&#x152;" horiz-adv-x="1032" 
d="M977 613h-414v-226h373v-74h-373v-239h414v-74h-573c-190 0 -352 141 -352 334s162 353 352 353h573v-74zM404 72h80v543h-80c-148 0 -273 -128 -273 -281c0 -154 125 -262 273 -262z" />
    <glyph glyph-name="P" unicode="P" horiz-adv-x="644" 
d="M79 0v687h279c142 0 253 -91 253 -220s-111 -220 -253 -220h-201v-247h-78zM157 321h187c112 0 188 54 188 146s-76 146 -188 146h-187v-292z" />
    <glyph glyph-name="Thorn" unicode="&#xde;" horiz-adv-x="644" 
d="M79 0v687h80v-121h199c142 0 253 -91 253 -220s-111 -220 -253 -220h-201v-126h-78zM157 200h187c112 0 188 54 188 146s-76 146 -188 146h-187v-292z" />
    <glyph glyph-name="Q" unicode="Q" horiz-adv-x="807" 
d="M755 344c0 -82 -29 -158 -77 -219l77 -67l-50 -58l-80 70c-61 -51 -138 -82 -221 -82c-190 0 -352 163 -352 356s162 355 352 355c191 0 351 -162 351 -355zM404 60c61 0 118 22 164 59l-107 93l50 58l110 -95c34 47 55 106 55 169c0 153 -124 283 -272 283
s-273 -130 -273 -283c0 -154 125 -284 273 -284z" />
    <glyph glyph-name="R" unicode="R" horiz-adv-x="650" 
d="M611 467c0 -108 -78 -190 -187 -213l178 -254h-89l-174 247h-182v-247h-78v687h279c142 0 253 -91 253 -220zM157 613v-292h187c112 0 188 54 188 146s-76 146 -188 146h-187z" />
    <glyph glyph-name="Racute" unicode="&#x154;" horiz-adv-x="650" 
d="M454 872l-142 -126h-58l121 144zM611 467c0 -108 -78 -190 -187 -213l178 -254h-89l-174 247h-182v-247h-78v687h279c142 0 253 -91 253 -220zM157 613v-292h187c112 0 188 54 188 146s-76 146 -188 146h-187z" />
    <glyph glyph-name="Rcaron" unicode="&#x158;" horiz-adv-x="650" 
d="M369 746h-70l-100 137h57l78 -86l79 86h58zM611 467c0 -108 -78 -190 -187 -213l178 -254h-89l-174 247h-182v-247h-78v687h279c142 0 253 -91 253 -220zM157 613v-292h187c112 0 188 54 188 146s-76 146 -188 146h-187z" />
    <glyph glyph-name="Rcommaaccent" unicode="&#x156;" horiz-adv-x="650" 
d="M611 467c0 -108 -78 -190 -187 -213l178 -254h-89l-174 247h-182v-247h-78v687h279c142 0 253 -91 253 -220zM157 613v-292h187c112 0 188 54 188 146s-76 146 -188 146h-187zM319 -82c32 0 52 -28 52 -68c0 -33 -15 -61 -65 -125l-32 23c23 26 38 52 44 79
c-25 0 -45 21 -45 46c0 24 20 45 46 45z" />
    <glyph glyph-name="S" unicode="S" horiz-adv-x="613" 
d="M317 -11c-113 0 -202 41 -271 109l49 61c58 -58 129 -99 225 -99c106 0 160 58 160 120c0 73 -65 102 -185 130c-138 32 -225 75 -225 194c0 110 98 196 230 196c102 0 178 -40 241 -98l-48 -61c-57 55 -125 88 -197 88c-85 0 -147 -56 -147 -119c0 -71 68 -96 185 -124
c131 -31 225 -78 225 -199c0 -109 -82 -198 -242 -198z" />
    <glyph glyph-name="Sacute" unicode="&#x15a;" horiz-adv-x="613" 
d="M220 746l121 144l79 -18l-142 -126h-58zM317 -11c-113 0 -202 41 -271 109l49 61c58 -58 129 -99 225 -99c106 0 160 58 160 120c0 73 -65 102 -185 130c-138 32 -225 75 -225 194c0 110 98 196 230 196c102 0 178 -40 241 -98l-48 -61c-57 55 -125 88 -197 88
c-85 0 -147 -56 -147 -119c0 -71 68 -96 185 -124c131 -31 225 -78 225 -199c0 -109 -82 -198 -242 -198z" />
    <glyph glyph-name="Scaron" unicode="&#x160;" horiz-adv-x="613" 
d="M265 746l-100 137h57l78 -86l79 86h58l-102 -137h-70zM317 -11c-113 0 -202 41 -271 109l49 61c58 -58 129 -99 225 -99c106 0 160 58 160 120c0 73 -65 102 -185 130c-138 32 -225 75 -225 194c0 110 98 196 230 196c102 0 178 -40 241 -98l-48 -61
c-57 55 -125 88 -197 88c-85 0 -147 -56 -147 -119c0 -71 68 -96 185 -124c131 -31 225 -78 225 -199c0 -109 -82 -198 -242 -198z" />
    <glyph glyph-name="Scedilla" unicode="&#x15e;" horiz-adv-x="613" 
d="M559 187c0 -105 -76 -191 -224 -198l-15 -35c4 1 7 1 11 1c40 0 69 -27 69 -66c0 -49 -43 -81 -98 -81c-35 0 -68 12 -88 28l19 42c20 -16 43 -23 65 -23c29 0 50 16 50 38c0 19 -12 34 -39 34c-12 0 -25 -4 -34 -11l-16 17l24 57c-97 8 -175 47 -237 108l49 61
c58 -58 129 -99 225 -99c106 0 160 58 160 120c0 73 -65 102 -185 130c-138 32 -225 75 -225 194c0 110 98 196 230 196c102 0 178 -40 241 -98l-48 -61c-57 55 -125 88 -197 88c-85 0 -147 -56 -147 -119c0 -71 68 -96 185 -124c131 -31 225 -78 225 -199z" />
    <glyph glyph-name="T" unicode="T" horiz-adv-x="630" 
d="M276 0v613h-231v74h540v-74h-231v-613h-78z" />
    <glyph glyph-name="Tcaron" unicode="&#x164;" horiz-adv-x="630" 
d="M280 746l-100 137h57l78 -86l79 86h58l-102 -137h-70zM276 0v613h-231v74h540v-74h-231v-613h-78z" />
    <glyph glyph-name="uni0162" unicode="&#x162;" horiz-adv-x="630" 
d="M354 0h-13l-19 -46c4 1 7 1 11 1c40 0 69 -27 69 -66c0 -49 -43 -81 -98 -81c-35 0 -68 12 -88 28l19 42c20 -16 43 -23 65 -23c29 0 50 16 50 38c0 19 -12 34 -39 34c-12 0 -25 -4 -34 -11l-16 17l28 67h-13v613h-231v74h540v-74h-231v-613z" />
    <glyph glyph-name="U" unicode="U" horiz-adv-x="746" 
d="M373 -12c-168 0 -287 123 -287 297v402h78v-402c0 -132 87 -226 209 -226s209 94 209 226v402h78v-402c0 -174 -119 -297 -287 -297z" />
    <glyph glyph-name="Uacute" unicode="&#xda;" horiz-adv-x="746" 
d="M293 746l121 144l79 -18l-142 -126h-58zM373 -12c-168 0 -287 123 -287 297v402h78v-402c0 -132 87 -226 209 -226s209 94 209 226v402h78v-402c0 -174 -119 -297 -287 -297z" />
    <glyph glyph-name="Ucircumflex" unicode="&#xdb;" horiz-adv-x="746" 
d="M238 746l100 137h70l102 -137h-58l-79 86l-78 -86h-57zM373 -12c-168 0 -287 123 -287 297v402h78v-402c0 -132 87 -226 209 -226s209 94 209 226v402h78v-402c0 -174 -119 -297 -287 -297z" />
    <glyph glyph-name="Udieresis" unicode="&#xdc;" horiz-adv-x="746" 
d="M277 767c-26 0 -46 21 -46 46c0 24 20 46 46 46c25 0 46 -22 46 -46c0 -25 -21 -46 -46 -46zM469 767c-26 0 -46 21 -46 46c0 24 20 46 46 46c25 0 46 -22 46 -46c0 -25 -21 -46 -46 -46zM373 -12c-168 0 -287 123 -287 297v402h78v-402c0 -132 87 -226 209 -226
s209 94 209 226v402h78v-402c0 -174 -119 -297 -287 -297z" />
    <glyph glyph-name="Ugrave" unicode="&#xd9;" horiz-adv-x="746" 
d="M385 746l-142 126l79 18l121 -144h-58zM373 -12c-168 0 -287 123 -287 297v402h78v-402c0 -132 87 -226 209 -226s209 94 209 226v402h78v-402c0 -174 -119 -297 -287 -297z" />
    <glyph glyph-name="Uhungarumlaut" unicode="&#x170;" horiz-adv-x="746" 
d="M233 745l121 145l79 -18l-142 -127h-58zM433 745l121 143l79 -18l-142 -125h-58zM373 -12c-168 0 -287 123 -287 297v402h78v-402c0 -132 87 -226 209 -226s209 94 209 226v402h78v-402c0 -174 -119 -297 -287 -297z" />
    <glyph glyph-name="Umacron" unicode="&#x16a;" horiz-adv-x="746" 
d="M218 764v55h310v-55h-310zM373 -12c-168 0 -287 123 -287 297v402h78v-402c0 -132 87 -226 209 -226s209 94 209 226v402h78v-402c0 -174 -119 -297 -287 -297z" />
    <glyph glyph-name="Uogonek" unicode="&#x172;" horiz-adv-x="746" 
d="M582 687h78v-402c0 -174 -119 -297 -287 -297h-15c-13 -10 -21 -26 -21 -45c0 -35 21 -57 58 -57c21 0 37 8 47 19l32 -49c-23 -19 -52 -29 -84 -29c-64 0 -109 40 -109 107c0 24 9 45 22 62c-130 29 -217 140 -217 289v402h78v-402c0 -132 87 -226 209 -226
s209 94 209 226v402z" />
    <glyph glyph-name="Uring" unicode="&#x16e;" horiz-adv-x="746" 
d="M373 759c-57 0 -103 46 -103 103s46 103 103 103s103 -46 103 -103s-46 -103 -103 -103zM373 803c32 0 59 27 59 59s-27 59 -59 59s-59 -27 -59 -59s27 -59 59 -59zM373 -12c-168 0 -287 123 -287 297v402h78v-402c0 -132 87 -226 209 -226s209 94 209 226v402h78v-402
c0 -174 -119 -297 -287 -297z" />
    <glyph glyph-name="V" unicode="V" horiz-adv-x="755" 
d="M638 687h85l-303 -687h-85l-303 687h85l261 -591z" />
    <glyph glyph-name="W" unicode="W" horiz-adv-x="1081" 
d="M272 0l-235 687h88l190 -556l182 556h87l182 -556l190 556h88l-235 -687h-77l-191 585l-192 -585h-77z" />
    <glyph glyph-name="Wacute" unicode="&#x1e82;" horiz-adv-x="1081" 
d="M511 746l121 144l79 -18l-142 -126h-58zM272 0l-235 687h88l190 -556l182 556h87l182 -556l190 556h88l-235 -687h-77l-191 585l-192 -585h-77z" />
    <glyph glyph-name="Wcircumflex" unicode="&#x174;" horiz-adv-x="1081" 
d="M406 746l100 137h70l102 -137h-58l-79 86l-78 -86h-57zM272 0l-235 687h88l190 -556l182 556h87l182 -556l190 556h88l-235 -687h-77l-191 585l-192 -585h-77z" />
    <glyph glyph-name="Wdieresis" unicode="&#x1e84;" horiz-adv-x="1081" 
d="M445 767c-26 0 -46 21 -46 46c0 24 20 46 46 46c25 0 46 -22 46 -46c0 -25 -21 -46 -46 -46zM637 767c-26 0 -46 21 -46 46c0 24 20 46 46 46c25 0 46 -22 46 -46c0 -25 -21 -46 -46 -46zM272 0l-235 687h88l190 -556l182 556h87l182 -556l190 556h88l-235 -687h-77
l-191 585l-192 -585h-77z" />
    <glyph glyph-name="Wgrave" unicode="&#x1e80;" horiz-adv-x="1081" 
d="M513 746l-142 126l79 18l121 -144h-58zM272 0l-235 687h88l190 -556l182 556h87l182 -556l190 556h88l-235 -687h-77l-191 585l-192 -585h-77z" />
    <glyph glyph-name="X" unicode="X" horiz-adv-x="697" 
d="M659 687l-263 -343l263 -344h-96l-215 281l-215 -281h-95l263 343l-263 344h96l215 -281l215 281h95z" />
    <glyph glyph-name="Y" unicode="Y" horiz-adv-x="671" 
d="M295 0v280l-277 407h97l221 -333l223 333h94l-276 -407v-280h-82z" />
    <glyph glyph-name="Yacute" unicode="&#xdd;" horiz-adv-x="671" 
d="M256 746l121 144l79 -18l-142 -126h-58zM295 0v280l-277 407h97l221 -333l223 333h94l-276 -407v-280h-82z" />
    <glyph glyph-name="Ycircumflex" unicode="&#x176;" horiz-adv-x="671" 
d="M201 746l100 137h70l102 -137h-58l-79 86l-78 -86h-57zM295 0v280l-277 407h97l221 -333l223 333h94l-276 -407v-280h-82z" />
    <glyph glyph-name="Ydieresis" unicode="&#x178;" horiz-adv-x="671" 
d="M240 767c-26 0 -46 21 -46 46c0 24 20 46 46 46c25 0 46 -22 46 -46c0 -25 -21 -46 -46 -46zM432 767c-26 0 -46 21 -46 46c0 24 20 46 46 46c25 0 46 -22 46 -46c0 -25 -21 -46 -46 -46zM295 0v280l-277 407h97l221 -333l223 333h94l-276 -407v-280h-82z" />
    <glyph glyph-name="Ygrave" unicode="&#x1ef2;" horiz-adv-x="671" 
d="M348 746l-142 126l79 18l121 -144h-58zM295 0v280l-277 407h97l221 -333l223 333h94l-276 -407v-280h-82z" />
    <glyph glyph-name="Z" unicode="Z" horiz-adv-x="639" 
d="M58 0v62l414 551h-407v74h514v-62l-415 -551h419v-74h-525z" />
    <glyph glyph-name="Zacute" unicode="&#x179;" horiz-adv-x="639" 
d="M242 746l121 144l79 -18l-142 -126h-58zM58 0v62l414 551h-407v74h514v-62l-415 -551h419v-74h-525z" />
    <glyph glyph-name="Zcaron" unicode="&#x17d;" horiz-adv-x="639" 
d="M287 746l-100 137h57l78 -86l79 86h58l-102 -137h-70zM58 0v62l414 551h-407v74h514v-62l-415 -551h419v-74h-525z" />
    <glyph glyph-name="Zdotaccent" unicode="&#x17b;" horiz-adv-x="639" 
d="M322 767c-26 0 -46 21 -46 46c0 24 20 46 46 46c25 0 46 -22 46 -46c0 -25 -21 -46 -46 -46zM58 0v62l414 551h-407v74h514v-62l-415 -551h419v-74h-525z" />
    <glyph glyph-name="a" unicode="a" horiz-adv-x="573" 
d="M286 529c141 0 210 -89 210 -214v-315h-75v81c-37 -61 -114 -93 -182 -93c-109 0 -189 63 -189 165c0 103 92 172 203 172c56 0 115 -12 168 -29v19c0 70 -28 150 -140 150c-52 0 -104 -23 -151 -47l-30 61c74 37 136 50 186 50zM252 54c68 0 149 35 169 108v79
c-47 13 -100 21 -156 21c-77 0 -142 -44 -142 -106c0 -64 56 -102 129 -102z" />
    <glyph glyph-name="aacute" unicode="&#xe1;" horiz-adv-x="573" 
d="M413 702l-142 -126h-58l121 144zM286 529c141 0 210 -89 210 -214v-315h-75v81c-37 -61 -114 -93 -182 -93c-109 0 -189 63 -189 165c0 103 92 172 203 172c56 0 115 -12 168 -29v19c0 70 -28 150 -140 150c-52 0 -104 -23 -151 -47l-30 61c74 37 136 50 186 50zM252 54
c68 0 149 35 169 108v79c-47 13 -100 21 -156 21c-77 0 -142 -44 -142 -106c0 -64 56 -102 129 -102z" />
    <glyph glyph-name="abreve" unicode="&#x103;" horiz-adv-x="573" 
d="M439 649c-40 -40 -93 -60 -146 -60s-105 20 -146 60l47 47c27 -26 64 -42 99 -42s72 16 99 42zM286 529c141 0 210 -89 210 -214v-315h-75v81c-37 -61 -114 -93 -182 -93c-109 0 -189 63 -189 165c0 103 92 172 203 172c56 0 115 -12 168 -29v19c0 70 -28 150 -140 150
c-52 0 -104 -23 -151 -47l-30 61c74 37 136 50 186 50zM252 54c68 0 149 35 169 108v79c-47 13 -100 21 -156 21c-77 0 -142 -44 -142 -106c0 -64 56 -102 129 -102z" />
    <glyph glyph-name="acircumflex" unicode="&#xe2;" horiz-adv-x="573" 
d="M293 662l-78 -86h-57l100 137h70l102 -137h-58zM286 529c141 0 210 -89 210 -214v-315h-75v81c-37 -61 -114 -93 -182 -93c-109 0 -189 63 -189 165c0 103 92 172 203 172c56 0 115 -12 168 -29v19c0 70 -28 150 -140 150c-52 0 -104 -23 -151 -47l-30 61
c74 37 136 50 186 50zM252 54c68 0 149 35 169 108v79c-47 13 -100 21 -156 21c-77 0 -142 -44 -142 -106c0 -64 56 -102 129 -102z" />
    <glyph glyph-name="adieresis" unicode="&#xe4;" horiz-adv-x="573" 
d="M197 597c-26 0 -46 21 -46 46c0 24 20 46 46 46c25 0 46 -22 46 -46c0 -25 -21 -46 -46 -46zM389 597c-26 0 -46 21 -46 46c0 24 20 46 46 46c25 0 46 -22 46 -46c0 -25 -21 -46 -46 -46zM286 529c141 0 210 -89 210 -214v-315h-75v81c-37 -61 -114 -93 -182 -93
c-109 0 -189 63 -189 165c0 103 92 172 203 172c56 0 115 -12 168 -29v19c0 70 -28 150 -140 150c-52 0 -104 -23 -151 -47l-30 61c74 37 136 50 186 50zM252 54c68 0 149 35 169 108v79c-47 13 -100 21 -156 21c-77 0 -142 -44 -142 -106c0 -64 56 -102 129 -102z" />
    <glyph glyph-name="agrave" unicode="&#xe0;" horiz-adv-x="573" 
d="M363 576h-58l-142 126l79 18zM286 529c141 0 210 -89 210 -214v-315h-75v81c-37 -61 -114 -93 -182 -93c-109 0 -189 63 -189 165c0 103 92 172 203 172c56 0 115 -12 168 -29v19c0 70 -28 150 -140 150c-52 0 -104 -23 -151 -47l-30 61c74 37 136 50 186 50zM252 54
c68 0 149 35 169 108v79c-47 13 -100 21 -156 21c-77 0 -142 -44 -142 -106c0 -64 56 -102 129 -102z" />
    <glyph glyph-name="amacron" unicode="&#x101;" horiz-adv-x="573" 
d="M448 649v-55h-310v55h310zM286 529c141 0 210 -89 210 -214v-315h-75v81c-37 -61 -114 -93 -182 -93c-109 0 -189 63 -189 165c0 103 92 172 203 172c56 0 115 -12 168 -29v19c0 70 -28 150 -140 150c-52 0 -104 -23 -151 -47l-30 61c74 37 136 50 186 50zM252 54
c68 0 149 35 169 108v79c-47 13 -100 21 -156 21c-77 0 -142 -44 -142 -106c0 -64 56 -102 129 -102z" />
    <glyph glyph-name="aogonek" unicode="&#x105;" horiz-adv-x="573" 
d="M543 -95l32 -49c-23 -19 -52 -29 -84 -29c-64 0 -109 40 -109 107c0 32 17 62 39 77v70c-37 -61 -114 -93 -182 -93c-109 0 -189 63 -189 165c0 103 92 172 203 172c56 0 115 -12 168 -29v19c0 70 -28 150 -140 150c-52 0 -104 -23 -151 -47l-30 61c74 37 136 50 186 50
c141 0 210 -89 210 -214v-315c-34 0 -58 -24 -58 -57c0 -35 21 -57 58 -57c21 0 37 8 47 19zM252 54c68 0 149 35 169 108v79c-47 13 -100 21 -156 21c-77 0 -142 -44 -142 -106c0 -64 56 -102 129 -102z" />
    <glyph glyph-name="aring" unicode="&#xe5;" horiz-adv-x="573" 
d="M293 589c-57 0 -103 46 -103 103s46 103 103 103s103 -46 103 -103s-46 -103 -103 -103zM293 751c-32 0 -59 -27 -59 -59s27 -59 59 -59s59 27 59 59s-27 59 -59 59zM286 529c141 0 210 -89 210 -214v-315h-75v81c-37 -61 -114 -93 -182 -93c-109 0 -189 63 -189 165
c0 103 92 172 203 172c56 0 115 -12 168 -29v19c0 70 -28 150 -140 150c-52 0 -104 -23 -151 -47l-30 61c74 37 136 50 186 50zM252 54c68 0 149 35 169 108v79c-47 13 -100 21 -156 21c-77 0 -142 -44 -142 -106c0 -64 56 -102 129 -102z" />
    <glyph glyph-name="atilde" unicode="&#xe3;" horiz-adv-x="573" 
d="M228 641c-26 0 -42 -20 -50 -68l-46 7c10 76 41 119 96 119c59 0 88 -66 129 -66c26 0 42 20 50 68l46 -7c-10 -76 -41 -119 -96 -119c-59 0 -88 66 -129 66zM286 529c141 0 210 -89 210 -214v-315h-75v81c-37 -61 -114 -93 -182 -93c-109 0 -189 63 -189 165
c0 103 92 172 203 172c56 0 115 -12 168 -29v19c0 70 -28 150 -140 150c-52 0 -104 -23 -151 -47l-30 61c74 37 136 50 186 50zM252 54c68 0 149 35 169 108v79c-47 13 -100 21 -156 21c-77 0 -142 -44 -142 -106c0 -64 56 -102 129 -102z" />
    <glyph glyph-name="ae" unicode="&#xe6;" horiz-adv-x="968" 
d="M682 55c61 0 131 27 163 62l46 -49c-45 -49 -136 -80 -208 -80c-87 0 -169 45 -217 119c-43 -70 -125 -119 -217 -119c-125 0 -199 61 -199 165c0 103 92 172 203 172c56 0 115 -12 168 -29v19c0 70 -28 150 -140 150c-52 0 -104 -23 -151 -47l-30 61
c74 37 136 50 186 50c95 0 157 -40 187 -104c47 64 121 104 203 104c156 0 245 -118 245 -299h-423c11 -101 82 -175 184 -175zM679 462c-92 0 -166 -65 -180 -165h348c-10 93 -65 165 -168 165zM262 54c86 0 159 68 159 149v38c-47 13 -100 21 -156 21
c-77 0 -142 -44 -142 -106c0 -64 52 -102 139 -102z" />
    <glyph glyph-name="b" unicode="b" 
d="M346 529c136 0 238 -112 238 -270c0 -159 -102 -271 -238 -271c-83 0 -149 41 -188 109v-97h-75v699h75v-279c39 68 105 109 188 109zM332 55c101 0 173 85 173 204s-72 203 -173 203c-102 0 -174 -84 -174 -203s72 -204 174 -204z" />
    <glyph glyph-name="c" unicode="c" horiz-adv-x="542" 
d="M316 -12c-145 0 -268 124 -268 271s123 270 268 270c70 0 135 -29 184 -76l-52 -51c-34 37 -81 60 -132 60c-103 0 -189 -93 -189 -203c0 -111 86 -204 189 -204c52 0 100 24 135 63l52 -51c-49 -49 -115 -79 -187 -79z" />
    <glyph glyph-name="cacute" unicode="&#x107;" horiz-adv-x="542" 
d="M216 576l121 144l79 -18l-142 -126h-58zM316 -12c-145 0 -268 124 -268 271s123 270 268 270c70 0 135 -29 184 -76l-52 -51c-34 37 -81 60 -132 60c-103 0 -189 -93 -189 -203c0 -111 86 -204 189 -204c52 0 100 24 135 63l52 -51c-49 -49 -115 -79 -187 -79z" />
    <glyph glyph-name="ccaron" unicode="&#x10d;" horiz-adv-x="542" 
d="M261 576l-100 137h57l78 -86l79 86h58l-102 -137h-70zM316 -12c-145 0 -268 124 -268 271s123 270 268 270c70 0 135 -29 184 -76l-52 -51c-34 37 -81 60 -132 60c-103 0 -189 -93 -189 -203c0 -111 86 -204 189 -204c52 0 100 24 135 63l52 -51
c-49 -49 -115 -79 -187 -79z" />
    <glyph glyph-name="ccedilla" unicode="&#xe7;" horiz-adv-x="542" 
d="M330 -45c40 0 69 -27 69 -66c0 -49 -43 -81 -98 -81c-35 0 -68 12 -88 28l19 42c20 -16 43 -23 65 -23c29 0 50 16 50 38c0 19 -12 34 -39 34c-12 0 -25 -4 -34 -11l-16 17l24 57c-130 18 -234 134 -234 269c0 147 123 270 268 270c70 0 135 -29 184 -76l-52 -51
c-34 37 -81 60 -132 60c-103 0 -189 -93 -189 -203c0 -111 86 -204 189 -204c52 0 100 24 135 63l52 -51c-45 -45 -104 -74 -169 -78l-15 -35c4 1 7 1 11 1z" />
    <glyph glyph-name="d" unicode="d" 
d="M480 699h75v-699h-75v97c-39 -68 -105 -109 -188 -109c-136 0 -238 112 -238 271c0 158 102 270 238 270c83 0 149 -41 188 -109v279zM306 55c102 0 174 85 174 204s-72 203 -174 203c-101 0 -173 -84 -173 -203s72 -204 173 -204z" />
    <glyph glyph-name="eth" unicode="&#xf0;" horiz-adv-x="627" 
d="M390 608c116 -108 177 -209 177 -339c0 -165 -104 -281 -252 -281c-149 0 -255 108 -255 260c0 146 97 250 233 250c70 0 124 -30 167 -81c-30 58 -78 112 -135 162l-122 -54l-27 62l91 40c-27 20 -54 40 -81 58l76 31c26 -20 50 -39 73 -58l99 44l27 -62zM315 56
c101 0 173 78 173 189c0 103 -68 187 -176 187c-102 0 -174 -77 -174 -185c0 -112 73 -191 177 -191z" />
    <glyph glyph-name="dcaron" unicode="&#x10f;" 
d="M480 420v279h75v-699h-75v97c-39 -68 -105 -109 -188 -109c-136 0 -238 112 -238 271c0 158 102 270 238 270c83 0 149 -41 188 -109zM676 699c32 0 52 -28 52 -68c0 -33 -15 -61 -65 -125l-32 23c23 26 38 52 44 79c-25 0 -45 21 -45 46c0 24 20 45 46 45zM306 55
c102 0 174 85 174 204s-72 203 -174 203c-101 0 -173 -84 -173 -203s72 -204 173 -204z" />
    <glyph glyph-name="dcroat" unicode="&#x111;" horiz-adv-x="657" 
d="M620 635v-50h-65v-585h-75v97c-39 -68 -105 -109 -188 -109c-136 0 -238 112 -238 271c0 158 102 270 238 270c83 0 149 -41 188 -109v165h-170v50h170v64h75v-64h65zM306 55c102 0 174 85 174 204s-72 203 -174 203c-101 0 -173 -84 -173 -203s72 -204 173 -204z" />
    <glyph glyph-name="e" unicode="e" horiz-adv-x="595" 
d="M309 55c61 0 131 27 163 62l46 -49c-45 -49 -136 -80 -208 -80c-138 0 -262 113 -262 272c0 154 116 269 255 269c156 0 245 -118 245 -299h-423c11 -101 82 -175 184 -175zM306 462c-92 0 -166 -65 -180 -165h348c-10 93 -65 165 -168 165z" />
    <glyph glyph-name="eacute" unicode="&#xe9;" horiz-adv-x="595" 
d="M423 702l-142 -126h-58l121 144zM309 55c61 0 131 27 163 62l46 -49c-45 -49 -136 -80 -208 -80c-138 0 -262 113 -262 272c0 154 116 269 255 269c156 0 245 -118 245 -299h-423c11 -101 82 -175 184 -175zM306 462c-92 0 -166 -65 -180 -165h348
c-10 93 -65 165 -168 165z" />
    <glyph glyph-name="ecaron" unicode="&#x11b;" horiz-adv-x="595" 
d="M338 576h-70l-100 137h57l78 -86l79 86h58zM309 55c61 0 131 27 163 62l46 -49c-45 -49 -136 -80 -208 -80c-138 0 -262 113 -262 272c0 154 116 269 255 269c156 0 245 -118 245 -299h-423c11 -101 82 -175 184 -175zM306 462c-92 0 -166 -65 -180 -165h348
c-10 93 -65 165 -168 165z" />
    <glyph glyph-name="ecircumflex" unicode="&#xea;" horiz-adv-x="595" 
d="M303 662l-78 -86h-57l100 137h70l102 -137h-58zM309 55c61 0 131 27 163 62l46 -49c-45 -49 -136 -80 -208 -80c-138 0 -262 113 -262 272c0 154 116 269 255 269c156 0 245 -118 245 -299h-423c11 -101 82 -175 184 -175zM306 462c-92 0 -166 -65 -180 -165h348
c-10 93 -65 165 -168 165z" />
    <glyph glyph-name="edieresis" unicode="&#xeb;" horiz-adv-x="595" 
d="M207 597c-26 0 -46 21 -46 46c0 24 20 46 46 46c25 0 46 -22 46 -46c0 -25 -21 -46 -46 -46zM399 597c-26 0 -46 21 -46 46c0 24 20 46 46 46c25 0 46 -22 46 -46c0 -25 -21 -46 -46 -46zM309 55c61 0 131 27 163 62l46 -49c-45 -49 -136 -80 -208 -80
c-138 0 -262 113 -262 272c0 154 116 269 255 269c156 0 245 -118 245 -299h-423c11 -101 82 -175 184 -175zM306 462c-92 0 -166 -65 -180 -165h348c-10 93 -65 165 -168 165z" />
    <glyph glyph-name="edotaccent" unicode="&#x117;" horiz-adv-x="595" 
d="M303 597c-26 0 -46 21 -46 46c0 24 20 46 46 46c25 0 46 -22 46 -46c0 -25 -21 -46 -46 -46zM309 55c61 0 131 27 163 62l46 -49c-45 -49 -136 -80 -208 -80c-138 0 -262 113 -262 272c0 154 116 269 255 269c156 0 245 -118 245 -299h-423c11 -101 82 -175 184 -175z
M306 462c-92 0 -166 -65 -180 -165h348c-10 93 -65 165 -168 165z" />
    <glyph glyph-name="uni1EB9" unicode="&#x1eb9;" horiz-adv-x="595" 
d="M309 55c61 0 131 27 163 62l46 -49c-45 -49 -136 -80 -208 -80c-138 0 -262 113 -262 272c0 154 116 269 255 269c156 0 245 -118 245 -299h-423c11 -101 82 -175 184 -175zM306 462c-92 0 -166 -65 -180 -165h348c-10 93 -65 165 -168 165zM303 -81c25 0 46 -22 46 -46
c0 -25 -21 -46 -46 -46c-26 0 -46 21 -46 46c0 24 20 46 46 46z" />
    <glyph glyph-name="egrave" unicode="&#xe8;" horiz-adv-x="595" 
d="M373 576h-58l-142 126l79 18zM309 55c61 0 131 27 163 62l46 -49c-45 -49 -136 -80 -208 -80c-138 0 -262 113 -262 272c0 154 116 269 255 269c156 0 245 -118 245 -299h-423c11 -101 82 -175 184 -175zM306 462c-92 0 -166 -65 -180 -165h348c-10 93 -65 165 -168 165z
" />
    <glyph glyph-name="emacron" unicode="&#x113;" horiz-adv-x="595" 
d="M458 649v-55h-310v55h310zM309 55c61 0 131 27 163 62l46 -49c-45 -49 -136 -80 -208 -80c-138 0 -262 113 -262 272c0 154 116 269 255 269c156 0 245 -118 245 -299h-423c11 -101 82 -175 184 -175zM306 462c-92 0 -166 -65 -180 -165h348c-10 93 -65 165 -168 165z
" />
    <glyph glyph-name="eogonek" unicode="&#x119;" horiz-adv-x="595" 
d="M399 1c-11 -10 -18 -25 -18 -42c0 -35 21 -57 58 -57c21 0 37 8 47 19l32 -49c-23 -19 -52 -29 -84 -29c-64 0 -109 40 -109 107c0 14 3 27 8 39c-8 -1 -15 -1 -23 -1c-138 0 -262 113 -262 272c0 154 116 269 255 269c156 0 245 -118 245 -299h-423
c11 -101 82 -175 184 -175c61 0 131 27 163 62l46 -49c-28 -30 -72 -53 -119 -67zM306 462c-92 0 -166 -65 -180 -165h348c-10 93 -65 165 -168 165z" />
    <glyph glyph-name="uni1EBD" unicode="&#x1ebd;" horiz-adv-x="595" 
d="M238 641c-26 0 -42 -20 -50 -68l-46 7c10 76 41 119 96 119c59 0 88 -66 129 -66c26 0 42 20 50 68l46 -7c-10 -76 -41 -119 -96 -119c-59 0 -88 66 -129 66zM309 55c61 0 131 27 163 62l46 -49c-45 -49 -136 -80 -208 -80c-138 0 -262 113 -262 272
c0 154 116 269 255 269c156 0 245 -118 245 -299h-423c11 -101 82 -175 184 -175zM306 462c-92 0 -166 -65 -180 -165h348c-10 93 -65 165 -168 165z" />
    <glyph glyph-name="f" unicode="f" horiz-adv-x="351" 
d="M193 588v-71h127v-67h-127v-450h-75v450h-81v67h81v71c0 77 52 132 126 132c35 0 69 -12 96 -33l-37 -55c-11 12 -31 21 -54 21c-30 0 -56 -27 -56 -65z" />
    <glyph glyph-name="g" unicode="g" horiz-adv-x="636" 
d="M478 517h75v-462c0 -133 -105 -227 -254 -227c-84 0 -162 29 -209 69l33 59c40 -38 102 -61 166 -61c119 0 189 59 189 160v84c-40 -63 -106 -101 -188 -101c-139 0 -238 102 -238 246s99 245 238 245c82 0 148 -38 188 -101v89zM304 105c102 0 174 74 174 179
c0 104 -72 178 -174 178c-101 0 -173 -74 -173 -178c0 -105 72 -179 173 -179z" />
    <glyph glyph-name="gbreve" unicode="&#x11f;" horiz-adv-x="636" 
d="M471 649c-40 -40 -93 -60 -146 -60s-105 20 -146 60l47 47c27 -26 64 -42 99 -42s72 16 99 42zM478 517h75v-462c0 -133 -105 -227 -254 -227c-84 0 -162 29 -209 69l33 59c40 -38 102 -61 166 -61c119 0 189 59 189 160v84c-40 -63 -106 -101 -188 -101
c-139 0 -238 102 -238 246s99 245 238 245c82 0 148 -38 188 -101v89zM304 105c102 0 174 74 174 179c0 104 -72 178 -174 178c-101 0 -173 -74 -173 -178c0 -105 72 -179 173 -179z" />
    <glyph glyph-name="gcommaaccent" unicode="&#x123;" horiz-adv-x="636" 
d="M312 598c-32 0 -52 28 -52 68c0 33 15 61 65 125l32 -23c-23 -26 -38 -52 -44 -79c25 0 45 -21 45 -46c0 -24 -20 -45 -46 -45zM478 517h75v-462c0 -133 -105 -227 -254 -227c-84 0 -162 29 -209 69l33 59c40 -38 102 -61 166 -61c119 0 189 59 189 160v84
c-40 -63 -106 -101 -188 -101c-139 0 -238 102 -238 246s99 245 238 245c82 0 148 -38 188 -101v89zM304 105c102 0 174 74 174 179c0 104 -72 178 -174 178c-101 0 -173 -74 -173 -178c0 -105 72 -179 173 -179z" />
    <glyph glyph-name="h" unicode="h" horiz-adv-x="592" 
d="M322 529c114 0 194 -83 194 -200v-329h-75v319c0 84 -53 143 -129 143c-87 0 -160 -61 -160 -133v-329h-75v699h75v-265c30 55 97 95 170 95z" />
    <glyph glyph-name="i" unicode="i" horiz-adv-x="225" 
d="M113 611c-28 0 -50 23 -50 50c0 26 22 49 50 49c27 0 49 -23 49 -49c0 -27 -22 -50 -49 -50zM75 0v517h75v-517h-75z" />
    <glyph glyph-name="dotlessi" unicode="&#x131;" horiz-adv-x="225" 
d="M75 0v517h75v-517h-75z" />
    <glyph glyph-name="iacute" unicode="&#xed;" horiz-adv-x="225" 
d="M83 576l121 144l79 -18l-142 -126h-58zM75 0v517h75v-517h-75z" />
    <glyph glyph-name="icircumflex" unicode="&#xee;" horiz-adv-x="225" 
d="M-22 576l100 137h70l102 -137h-58l-79 86l-78 -86h-57zM75 0v517h75v-517h-75z" />
    <glyph glyph-name="idieresis" unicode="&#xef;" horiz-adv-x="225" 
d="M17 597c-26 0 -46 21 -46 46c0 24 20 46 46 46c25 0 46 -22 46 -46c0 -25 -21 -46 -46 -46zM209 597c-26 0 -46 21 -46 46c0 24 20 46 46 46c25 0 46 -22 46 -46c0 -25 -21 -46 -46 -46zM75 0v517h75v-517h-75z" />
    <glyph glyph-name="igrave" unicode="&#xec;" horiz-adv-x="225" 
d="M85 576l-142 126l79 18l121 -144h-58zM75 0v517h75v-517h-75z" />
    <glyph glyph-name="imacron" unicode="&#x12b;" horiz-adv-x="225" 
d="M-42 594v55h310v-55h-310zM75 0v517h75v-517h-75z" />
    <glyph glyph-name="iogonek" unicode="&#x12f;" horiz-adv-x="225" 
d="M113 597c-26 0 -46 21 -46 46c0 24 20 46 46 46c25 0 46 -22 46 -46c0 -25 -21 -46 -46 -46zM160 -95l32 -49c-23 -19 -52 -29 -84 -29c-64 0 -109 40 -109 107c0 39 24 73 53 85l23 -7v505h75v-517h-37c-34 0 -58 -24 -58 -57c0 -35 21 -57 58 -57c21 0 37 8 47 19z" />
    <glyph glyph-name="j" unicode="j" horiz-adv-x="225" 
d="M113 611c-28 0 -50 23 -50 50c0 26 22 49 50 49c27 0 49 -23 49 -49c0 -27 -22 -50 -49 -50zM24 -178c-28 0 -61 7 -81 16l12 62c16 -6 43 -11 64 -11c33 0 56 27 56 65v563h75v-563c0 -77 -52 -132 -126 -132z" />
    <glyph glyph-name="uni0237" unicode="&#x237;" horiz-adv-x="225" 
d="M24 -178c-28 0 -61 7 -81 16l12 62c16 -6 43 -11 64 -11c33 0 56 27 56 65v563h75v-563c0 -77 -52 -132 -126 -132z" />
    <glyph glyph-name="k" unicode="k" horiz-adv-x="543" 
d="M529 517l-233 -237l220 -280h-94l-179 229l-93 -92v-137h-75v699h75v-468l283 286h96z" />
    <glyph glyph-name="kcommaaccent" unicode="&#x137;" horiz-adv-x="543" 
d="M529 517l-233 -237l220 -280h-94l-179 229l-93 -92v-137h-75v699h75v-468l283 286h96zM276 -82c32 0 52 -28 52 -68c0 -33 -15 -61 -65 -125l-32 23c23 26 38 52 44 79c-25 0 -45 21 -45 46c0 24 20 45 46 45z" />
    <glyph glyph-name="l" unicode="l" horiz-adv-x="227" 
d="M76 0v699h75v-699h-75z" />
    <glyph glyph-name="lacute" unicode="&#x13a;" horiz-adv-x="227" 
d="M85 758l121 144l79 -18l-142 -126h-58zM76 0v699h75v-699h-75z" />
    <glyph glyph-name="lcaron" unicode="&#x13e;" horiz-adv-x="227" 
d="M76 0v699h75v-699h-75zM259 506l-32 23c23 26 38 52 44 79c-25 0 -45 21 -45 46c0 24 20 45 46 45c32 0 52 -28 52 -68c0 -33 -15 -61 -65 -125z" />
    <glyph glyph-name="lslash" unicode="&#x142;" horiz-adv-x="307" 
d="M270 429v-75l-82 -42v-312h-75v273l-76 -39v75l76 39v351h75v-312z" />
    <glyph glyph-name="m" unicode="m" horiz-adv-x="895" 
d="M635 529c108 0 184 -83 184 -200v-329h-75v319c0 84 -49 143 -119 143c-82 0 -140 -55 -140 -133v-329h-75v319c0 84 -49 143 -119 143c-82 0 -140 -55 -140 -133v-329h-75v517h75v-76c26 54 82 88 150 88c78 0 139 -43 167 -110c21 67 89 110 167 110z" />
    <glyph glyph-name="n" unicode="n" horiz-adv-x="592" 
d="M322 529c114 0 194 -83 194 -200v-329h-75v319c0 84 -53 143 -129 143c-87 0 -160 -61 -160 -133v-329h-75v517h75v-83c30 55 97 95 170 95z" />
    <glyph glyph-name="nacute" unicode="&#x144;" horiz-adv-x="592" 
d="M433 702l-142 -126h-58l121 144zM322 529c114 0 194 -83 194 -200v-329h-75v319c0 84 -53 143 -129 143c-87 0 -160 -61 -160 -133v-329h-75v517h75v-83c30 55 97 95 170 95z" />
    <glyph glyph-name="ncaron" unicode="&#x148;" horiz-adv-x="592" 
d="M348 576h-70l-100 137h57l78 -86l79 86h58zM322 529c114 0 194 -83 194 -200v-329h-75v319c0 84 -53 143 -129 143c-87 0 -160 -61 -160 -133v-329h-75v517h75v-83c30 55 97 95 170 95z" />
    <glyph glyph-name="ncommaaccent" unicode="&#x146;" horiz-adv-x="592" 
d="M322 529c114 0 194 -83 194 -200v-329h-75v319c0 84 -53 143 -129 143c-87 0 -160 -61 -160 -133v-329h-75v517h75v-83c30 55 97 95 170 95zM313 -82c32 0 52 -28 52 -68c0 -33 -15 -61 -65 -125l-32 23c23 26 38 52 44 79c-25 0 -45 21 -45 46c0 24 20 45 46 45z" />
    <glyph glyph-name="ntilde" unicode="&#xf1;" horiz-adv-x="592" 
d="M248 641c-26 0 -42 -20 -50 -68l-46 7c10 76 41 119 96 119c59 0 88 -66 129 -66c26 0 42 20 50 68l46 -7c-10 -76 -41 -119 -96 -119c-59 0 -88 66 -129 66zM322 529c114 0 194 -83 194 -200v-329h-75v319c0 84 -53 143 -129 143c-87 0 -160 -61 -160 -133v-329h-75v517
h75v-83c30 55 97 95 170 95z" />
    <glyph glyph-name="o" unicode="o" horiz-adv-x="631" 
d="M316 -12c-145 0 -268 124 -268 271s123 270 268 270s267 -123 267 -270s-122 -271 -267 -271zM316 55c102 0 188 93 188 204c0 110 -86 203 -188 203c-103 0 -189 -93 -189 -203c0 -111 86 -204 189 -204z" />
    <glyph glyph-name="oacute" unicode="&#xf3;" horiz-adv-x="631" 
d="M236 576l121 144l79 -18l-142 -126h-58zM316 -12c-145 0 -268 124 -268 271s123 270 268 270s267 -123 267 -270s-122 -271 -267 -271zM316 55c102 0 188 93 188 204c0 110 -86 203 -188 203c-103 0 -189 -93 -189 -203c0 -111 86 -204 189 -204z" />
    <glyph glyph-name="ocircumflex" unicode="&#xf4;" horiz-adv-x="631" 
d="M181 576l100 137h70l102 -137h-58l-79 86l-78 -86h-57zM316 -12c-145 0 -268 124 -268 271s123 270 268 270s267 -123 267 -270s-122 -271 -267 -271zM316 55c102 0 188 93 188 204c0 110 -86 203 -188 203c-103 0 -189 -93 -189 -203c0 -111 86 -204 189 -204z" />
    <glyph glyph-name="odieresis" unicode="&#xf6;" horiz-adv-x="631" 
d="M220 597c-26 0 -46 21 -46 46c0 24 20 46 46 46c25 0 46 -22 46 -46c0 -25 -21 -46 -46 -46zM412 597c-26 0 -46 21 -46 46c0 24 20 46 46 46c25 0 46 -22 46 -46c0 -25 -21 -46 -46 -46zM316 -12c-145 0 -268 124 -268 271s123 270 268 270s267 -123 267 -270
s-122 -271 -267 -271zM316 55c102 0 188 93 188 204c0 110 -86 203 -188 203c-103 0 -189 -93 -189 -203c0 -111 86 -204 189 -204z" />
    <glyph glyph-name="ograve" unicode="&#xf2;" horiz-adv-x="631" 
d="M328 576l-142 126l79 18l121 -144h-58zM316 -12c-145 0 -268 124 -268 271s123 270 268 270s267 -123 267 -270s-122 -271 -267 -271zM316 55c102 0 188 93 188 204c0 110 -86 203 -188 203c-103 0 -189 -93 -189 -203c0 -111 86 -204 189 -204z" />
    <glyph glyph-name="ohungarumlaut" unicode="&#x151;" horiz-adv-x="631" 
d="M181 575l121 145l79 -18l-142 -127h-58zM381 575l121 143l79 -18l-142 -125h-58zM316 -12c-145 0 -268 124 -268 271s123 270 268 270s267 -123 267 -270s-122 -271 -267 -271zM316 55c102 0 188 93 188 204c0 110 -86 203 -188 203c-103 0 -189 -93 -189 -203
c0 -111 86 -204 189 -204z" />
    <glyph glyph-name="omacron" unicode="&#x14d;" horiz-adv-x="631" 
d="M161 594v55h310v-55h-310zM316 -12c-145 0 -268 124 -268 271s123 270 268 270s267 -123 267 -270s-122 -271 -267 -271zM316 55c102 0 188 93 188 204c0 110 -86 203 -188 203c-103 0 -189 -93 -189 -203c0 -111 86 -204 189 -204z" />
    <glyph glyph-name="oslash" unicode="&#xf8;" horiz-adv-x="631" 
d="M513 439c43 -48 70 -111 70 -180c0 -147 -122 -271 -267 -271c-54 0 -105 17 -148 46l-29 -34h-85l66 77c-45 48 -72 113 -72 182c0 147 123 270 268 270c55 0 106 -18 149 -47l30 35h85zM127 259c0 -47 15 -91 41 -125l251 294c-30 21 -65 34 -103 34
c-103 0 -189 -93 -189 -203zM316 55c102 0 188 93 188 204c0 46 -15 88 -39 123l-251 -294c30 -21 65 -33 102 -33z" />
    <glyph glyph-name="otilde" unicode="&#xf5;" horiz-adv-x="631" 
d="M380 575c-59 0 -88 66 -129 66c-26 0 -42 -20 -50 -68l-46 7c10 76 41 119 96 119c59 0 88 -66 129 -66c26 0 42 20 50 68l46 -7c-10 -76 -41 -119 -96 -119zM316 -12c-145 0 -268 124 -268 271s123 270 268 270s267 -123 267 -270s-122 -271 -267 -271zM316 55
c102 0 188 93 188 204c0 110 -86 203 -188 203c-103 0 -189 -93 -189 -203c0 -111 86 -204 189 -204z" />
    <glyph glyph-name="oe" unicode="&#x153;" horiz-adv-x="1052" 
d="M766 55c61 0 131 27 163 62l46 -49c-45 -49 -136 -80 -208 -80c-92 0 -177 50 -224 130c-48 -77 -133 -130 -227 -130c-145 0 -268 124 -268 271s123 270 268 270c94 0 178 -52 226 -128c45 78 126 128 218 128c156 0 245 -118 245 -299h-423c11 -101 82 -175 184 -175z
M316 55c102 0 188 93 188 204c0 110 -86 203 -188 203c-103 0 -189 -93 -189 -203c0 -111 86 -204 189 -204zM763 462c-92 0 -166 -65 -180 -165h348c-10 93 -65 165 -168 165z" />
    <glyph glyph-name="p" unicode="p" 
d="M346 529c136 0 238 -112 238 -270c0 -159 -102 -271 -238 -271c-83 0 -149 41 -188 109v-269h-75v689h75v-97c39 68 105 109 188 109zM332 55c101 0 173 85 173 204s-72 203 -173 203c-102 0 -174 -84 -174 -203s72 -204 174 -204z" />
    <glyph glyph-name="thorn" unicode="&#xfe;" 
d="M346 529c136 0 238 -112 238 -270c0 -159 -102 -271 -238 -271c-83 0 -149 41 -188 109v-269h-75v871h75v-279c39 68 105 109 188 109zM332 55c101 0 173 85 173 204s-72 203 -173 203c-102 0 -174 -84 -174 -203s72 -204 174 -204z" />
    <glyph glyph-name="q" unicode="q" 
d="M480 517h75v-689h-75v269c-39 -68 -105 -109 -188 -109c-136 0 -238 112 -238 271c0 158 102 270 238 270c83 0 149 -41 188 -109v97zM306 55c102 0 174 85 174 204s-72 203 -174 203c-101 0 -173 -84 -173 -203s72 -204 173 -204z" />
    <glyph glyph-name="r" unicode="r" horiz-adv-x="386" 
d="M158 416c31 69 105 113 200 113v-67c-117 0 -200 -72 -200 -173v-289h-75v517h75v-101z" />
    <glyph glyph-name="racute" unicode="&#x155;" horiz-adv-x="386" 
d="M346 702l-142 -126h-58l121 144zM158 416c31 69 105 113 200 113v-67c-117 0 -200 -72 -200 -173v-289h-75v517h75v-101z" />
    <glyph glyph-name="rcaron" unicode="&#x159;" horiz-adv-x="386" 
d="M261 576h-70l-100 137h57l78 -86l79 86h58zM158 416c31 69 105 113 200 113v-67c-117 0 -200 -72 -200 -173v-289h-75v517h75v-101z" />
    <glyph glyph-name="rcommaaccent" unicode="&#x157;" horiz-adv-x="386" 
d="M158 416c31 69 105 113 200 113v-67c-117 0 -200 -72 -200 -173v-289h-75v517h75v-101zM158 -82c32 0 52 -28 52 -68c0 -33 -15 -61 -65 -125l-32 23c23 26 38 52 44 79c-25 0 -45 21 -45 46c0 24 20 45 46 45z" />
    <glyph glyph-name="s" unicode="s" horiz-adv-x="496" 
d="M259 -12c-72 0 -152 27 -214 77l39 55c59 -43 118 -65 175 -65c68 0 114 32 114 81c0 56 -60 74 -130 94c-125 36 -173 73 -173 147c0 94 78 152 181 152c64 0 130 -22 185 -58l-36 -58c-52 33 -103 49 -149 49c-58 0 -106 -26 -106 -76c0 -45 38 -59 134 -90
c83 -26 169 -54 169 -152c0 -95 -82 -156 -189 -156z" />
    <glyph glyph-name="sacute" unicode="&#x15b;" horiz-adv-x="496" 
d="M171 576l121 144l79 -18l-142 -126h-58zM259 -12c-72 0 -152 27 -214 77l39 55c59 -43 118 -65 175 -65c68 0 114 32 114 81c0 56 -60 74 -130 94c-125 36 -173 73 -173 147c0 94 78 152 181 152c64 0 130 -22 185 -58l-36 -58c-52 33 -103 49 -149 49
c-58 0 -106 -26 -106 -76c0 -45 38 -59 134 -90c83 -26 169 -54 169 -152c0 -95 -82 -156 -189 -156z" />
    <glyph glyph-name="scaron" unicode="&#x161;" horiz-adv-x="496" 
d="M216 576l-100 137h57l78 -86l79 86h58l-102 -137h-70zM259 -12c-72 0 -152 27 -214 77l39 55c59 -43 118 -65 175 -65c68 0 114 32 114 81c0 56 -60 74 -130 94c-125 36 -173 73 -173 147c0 94 78 152 181 152c64 0 130 -22 185 -58l-36 -58c-52 33 -103 49 -149 49
c-58 0 -106 -26 -106 -76c0 -45 38 -59 134 -90c83 -26 169 -54 169 -152c0 -95 -82 -156 -189 -156z" />
    <glyph glyph-name="scedilla" unicode="&#x15f;" horiz-adv-x="496" 
d="M448 144c0 -90 -74 -150 -173 -156l-14 -34c4 1 7 1 11 1c40 0 69 -27 69 -66c0 -49 -43 -81 -98 -81c-35 0 -68 12 -88 28l19 42c20 -16 43 -23 65 -23c29 0 50 16 50 38c0 19 -12 34 -39 34c-12 0 -25 -4 -34 -11l-16 17l24 57c-62 7 -127 33 -179 75l39 55
c59 -43 118 -65 175 -65c68 0 114 32 114 81c0 56 -60 74 -130 94c-125 36 -173 73 -173 147c0 94 78 152 181 152c64 0 130 -22 185 -58l-36 -58c-52 33 -103 49 -149 49c-58 0 -106 -26 -106 -76c0 -45 38 -59 134 -90c83 -26 169 -54 169 -152z" />
    <glyph glyph-name="germandbls" unicode="&#xdf;" horiz-adv-x="576" 
d="M84 0v526c0 106 87 181 209 181s208 -75 208 -181c0 -73 -36 -125 -98 -161c79 -40 125 -102 125 -177c0 -110 -85 -188 -204 -188h-87v71h67c85 0 145 53 145 127s-60 127 -145 127h-67v71h55c76 0 130 56 130 120c0 70 -54 120 -130 120s-130 -51 -130 -123v-513h-78z
" />
    <glyph glyph-name="t" unicode="t" horiz-adv-x="370" 
d="M303 76l37 -55c-27 -21 -61 -33 -96 -33c-74 0 -126 55 -126 132v330h-81v67h81v142h75v-142h127v-67h-127v-330c0 -38 26 -65 56 -65c23 0 43 9 54 21z" />
    <glyph glyph-name="tcaron" unicode="&#x165;" horiz-adv-x="370" 
d="M442 699c32 0 52 -28 52 -68c0 -33 -15 -61 -65 -125l-32 23c23 26 38 52 44 79c-25 0 -45 21 -45 46c0 24 20 45 46 45zM249 55c23 0 43 9 54 21l37 -55c-27 -21 -61 -33 -96 -33c-74 0 -126 55 -126 132v330h-81v67h81v142h75v-142h127v-67h-127v-330
c0 -38 26 -65 56 -65z" />
    <glyph glyph-name="uni0163" unicode="&#x163;" horiz-adv-x="370" 
d="M270 -45c40 0 69 -27 69 -66c0 -49 -43 -81 -98 -81c-35 0 -68 12 -88 28l19 42c20 -16 43 -23 65 -23c29 0 50 16 50 38c0 19 -12 34 -39 34c-12 0 -25 -4 -34 -11l-16 17l24 57c-62 9 -104 61 -104 130v330h-81v67h81v142h75v-142h127v-67h-127v-330
c0 -38 26 -65 56 -65c23 0 43 9 54 21l37 -55c-19 -15 -42 -25 -65 -30l-16 -37c4 1 7 1 11 1z" />
    <glyph glyph-name="u" unicode="u" horiz-adv-x="592" 
d="M440 517h75v-517h-75v83c-30 -55 -97 -95 -170 -95c-114 0 -194 83 -194 200v329h75v-319c0 -84 53 -143 129 -143c87 0 160 61 160 133v329z" />
    <glyph glyph-name="uacute" unicode="&#xfa;" horiz-adv-x="592" 
d="M415 702l-142 -126h-58l121 144zM440 517h75v-517h-75v83c-30 -55 -97 -95 -170 -95c-114 0 -194 83 -194 200v329h75v-319c0 -84 53 -143 129 -143c87 0 160 61 160 133v329z" />
    <glyph glyph-name="ucircumflex" unicode="&#xfb;" horiz-adv-x="592" 
d="M295 662l-78 -86h-57l100 137h70l102 -137h-58zM440 517h75v-517h-75v83c-30 -55 -97 -95 -170 -95c-114 0 -194 83 -194 200v329h75v-319c0 -84 53 -143 129 -143c87 0 160 61 160 133v329z" />
    <glyph glyph-name="udieresis" unicode="&#xfc;" horiz-adv-x="592" 
d="M199 597c-26 0 -46 21 -46 46c0 24 20 46 46 46c25 0 46 -22 46 -46c0 -25 -21 -46 -46 -46zM391 597c-26 0 -46 21 -46 46c0 24 20 46 46 46c25 0 46 -22 46 -46c0 -25 -21 -46 -46 -46zM440 517h75v-517h-75v83c-30 -55 -97 -95 -170 -95c-114 0 -194 83 -194 200v329
h75v-319c0 -84 53 -143 129 -143c87 0 160 61 160 133v329z" />
    <glyph glyph-name="ugrave" unicode="&#xf9;" horiz-adv-x="592" 
d="M365 576h-58l-142 126l79 18zM440 517h75v-517h-75v83c-30 -55 -97 -95 -170 -95c-114 0 -194 83 -194 200v329h75v-319c0 -84 53 -143 129 -143c87 0 160 61 160 133v329z" />
    <glyph glyph-name="uhungarumlaut" unicode="&#x171;" horiz-adv-x="592" 
d="M355 702l-142 -127h-58l121 145zM413 575h-58l121 143l79 -18zM440 188v329h75v-517h-75v83c-30 -55 -97 -95 -170 -95c-114 0 -194 83 -194 200v329h75v-319c0 -84 53 -143 129 -143c87 0 160 61 160 133z" />
    <glyph glyph-name="umacron" unicode="&#x16b;" horiz-adv-x="592" 
d="M450 649v-55h-310v55h310zM440 517h75v-517h-75v83c-30 -55 -97 -95 -170 -95c-114 0 -194 83 -194 200v329h75v-319c0 -84 53 -143 129 -143c87 0 160 61 160 133v329z" />
    <glyph glyph-name="uogonek" unicode="&#x173;" horiz-adv-x="592" 
d="M562 -95l32 -49c-23 -19 -52 -29 -84 -29c-64 0 -109 40 -109 107c0 32 17 62 39 77v72c-30 -55 -97 -95 -170 -95c-114 0 -194 83 -194 200v329h75v-319c0 -84 53 -143 129 -143c87 0 160 61 160 133v329h75v-517c-34 0 -58 -24 -58 -57c0 -35 21 -57 58 -57
c21 0 37 8 47 19z" />
    <glyph glyph-name="uring" unicode="&#x16f;" horiz-adv-x="592" 
d="M295 589c-57 0 -103 46 -103 103s46 103 103 103s103 -46 103 -103s-46 -103 -103 -103zM295 751c-32 0 -59 -27 -59 -59s27 -59 59 -59s59 27 59 59s-27 59 -59 59zM440 517h75v-517h-75v83c-30 -55 -97 -95 -170 -95c-114 0 -194 83 -194 200v329h75v-319
c0 -84 53 -143 129 -143c87 0 160 61 160 133v329z" />
    <glyph glyph-name="v" unicode="v" horiz-adv-x="563" 
d="M247 0l-220 517h84l172 -429l169 429h84l-217 -517h-72z" />
    <glyph glyph-name="w" unicode="w" horiz-adv-x="833" 
d="M208 0l-173 517h80l129 -417l141 417h65l141 -417l129 417h80l-174 -517h-71l-137 413l-139 -413h-71z" />
    <glyph glyph-name="wacute" unicode="&#x1e83;" horiz-adv-x="833" 
d="M388 576l121 144l79 -18l-142 -126h-58zM208 0l-173 517h80l129 -417l141 417h65l141 -417l129 417h80l-174 -517h-71l-137 413l-139 -413h-71z" />
    <glyph glyph-name="wcircumflex" unicode="&#x175;" horiz-adv-x="833" 
d="M283 576l100 137h70l102 -137h-58l-79 86l-78 -86h-57zM208 0l-173 517h80l129 -417l141 417h65l141 -417l129 417h80l-174 -517h-71l-137 413l-139 -413h-71z" />
    <glyph glyph-name="wdieresis" unicode="&#x1e85;" horiz-adv-x="833" 
d="M322 597c-26 0 -46 21 -46 46c0 24 20 46 46 46c25 0 46 -22 46 -46c0 -25 -21 -46 -46 -46zM514 597c-26 0 -46 21 -46 46c0 24 20 46 46 46c25 0 46 -22 46 -46c0 -25 -21 -46 -46 -46zM208 0l-173 517h80l129 -417l141 417h65l141 -417l129 417h80l-174 -517h-71
l-137 413l-139 -413h-71z" />
    <glyph glyph-name="wgrave" unicode="&#x1e81;" horiz-adv-x="833" 
d="M389 576l-142 126l79 18l121 -144h-58zM208 0l-173 517h80l129 -417l141 417h65l141 -417l129 417h80l-174 -517h-71l-137 413l-139 -413h-71z" />
    <glyph glyph-name="x" unicode="x" horiz-adv-x="551" 
d="M519 0h-88l-155 206l-156 -206h-88l200 264l-192 253h88l148 -195l147 195h88l-191 -253z" />
    <glyph glyph-name="y" unicode="y" horiz-adv-x="593" 
d="M153 -180c-30 0 -58 6 -82 17l18 64c18 -9 39 -13 61 -13c33 0 55 11 75 46l30 64l-225 519h83l181 -430l171 430h81l-236 -575c-36 -88 -86 -121 -157 -122z" />
    <glyph glyph-name="yacute" unicode="&#xfd;" horiz-adv-x="593" 
d="M214 576l121 144l79 -18l-142 -126h-58zM153 -180c-30 0 -58 6 -82 17l18 64c18 -9 39 -13 61 -13c33 0 55 11 75 46l30 64l-225 519h83l181 -430l171 430h81l-236 -575c-36 -88 -86 -121 -157 -122z" />
    <glyph glyph-name="ycircumflex" unicode="&#x177;" horiz-adv-x="593" 
d="M159 576l100 137h70l102 -137h-58l-79 86l-78 -86h-57zM153 -180c-30 0 -58 6 -82 17l18 64c18 -9 39 -13 61 -13c33 0 55 11 75 46l30 64l-225 519h83l181 -430l171 430h81l-236 -575c-36 -88 -86 -121 -157 -122z" />
    <glyph glyph-name="ydieresis" unicode="&#xff;" horiz-adv-x="593" 
d="M198 597c-26 0 -46 21 -46 46c0 24 20 46 46 46c25 0 46 -22 46 -46c0 -25 -21 -46 -46 -46zM390 597c-26 0 -46 21 -46 46c0 24 20 46 46 46c25 0 46 -22 46 -46c0 -25 -21 -46 -46 -46zM153 -180c-30 0 -58 6 -82 17l18 64c18 -9 39 -13 61 -13c33 0 55 11 75 46l30 64
l-225 519h83l181 -430l171 430h81l-236 -575c-36 -88 -86 -121 -157 -122z" />
    <glyph glyph-name="ygrave" unicode="&#x1ef3;" horiz-adv-x="593" 
d="M306 576l-142 126l79 18l121 -144h-58zM153 -180c-30 0 -58 6 -82 17l18 64c18 -9 39 -13 61 -13c33 0 55 11 75 46l30 64l-225 519h83l181 -430l171 430h81l-236 -575c-36 -88 -86 -121 -157 -122z" />
    <glyph glyph-name="z" unicode="z" horiz-adv-x="514" 
d="M54 0v59l305 387h-299v71h400v-59l-306 -387h308v-71h-408z" />
    <glyph glyph-name="zacute" unicode="&#x17a;" horiz-adv-x="514" 
d="M184 576l121 144l79 -18l-142 -126h-58zM54 0v59l305 387h-299v71h400v-59l-306 -387h308v-71h-408z" />
    <glyph glyph-name="zcaron" unicode="&#x17e;" horiz-adv-x="514" 
d="M229 576l-100 137h57l78 -86l79 86h58l-102 -137h-70zM54 0v59l305 387h-299v71h400v-59l-306 -387h308v-71h-408z" />
    <glyph glyph-name="zdotaccent" unicode="&#x17c;" horiz-adv-x="514" 
d="M264 597c-26 0 -46 21 -46 46c0 24 20 46 46 46c25 0 46 -22 46 -46c0 -25 -21 -46 -46 -46zM54 0v59l305 387h-299v71h400v-59l-306 -387h308v-71h-408z" />
    <glyph glyph-name="a.alt" 
d="M480 517h75v-517h-75v97c-39 -68 -105 -109 -188 -109c-136 0 -238 112 -238 271c0 158 102 270 238 270c83 0 149 -41 188 -109v97zM306 55c102 0 174 85 174 204s-72 203 -174 203c-101 0 -173 -84 -173 -203s72 -204 173 -204z" />
    <glyph glyph-name="aacute.alt" 
d="M445 702l-142 -126h-58l121 144zM480 517h75v-517h-75v97c-39 -68 -105 -109 -188 -109c-136 0 -238 112 -238 271c0 158 102 270 238 270c83 0 149 -41 188 -109v97zM306 55c102 0 174 85 174 204s-72 203 -174 203c-101 0 -173 -84 -173 -203s72 -204 173 -204z" />
    <glyph glyph-name="abreve.alt" 
d="M471 649c-40 -40 -93 -60 -146 -60s-105 20 -146 60l47 47c27 -26 64 -42 99 -42s72 16 99 42zM480 517h75v-517h-75v97c-39 -68 -105 -109 -188 -109c-136 0 -238 112 -238 271c0 158 102 270 238 270c83 0 149 -41 188 -109v97zM306 55c102 0 174 85 174 204
s-72 203 -174 203c-101 0 -173 -84 -173 -203s72 -204 173 -204z" />
    <glyph glyph-name="acircumflex.alt" 
d="M325 662l-78 -86h-57l100 137h70l102 -137h-58zM480 517h75v-517h-75v97c-39 -68 -105 -109 -188 -109c-136 0 -238 112 -238 271c0 158 102 270 238 270c83 0 149 -41 188 -109v97zM306 55c102 0 174 85 174 204s-72 203 -174 203c-101 0 -173 -84 -173 -203
s72 -204 173 -204z" />
    <glyph glyph-name="adieresis.alt" 
d="M229 597c-26 0 -46 21 -46 46c0 24 20 46 46 46c25 0 46 -22 46 -46c0 -25 -21 -46 -46 -46zM421 597c-26 0 -46 21 -46 46c0 24 20 46 46 46c25 0 46 -22 46 -46c0 -25 -21 -46 -46 -46zM480 517h75v-517h-75v97c-39 -68 -105 -109 -188 -109c-136 0 -238 112 -238 271
c0 158 102 270 238 270c83 0 149 -41 188 -109v97zM306 55c102 0 174 85 174 204s-72 203 -174 203c-101 0 -173 -84 -173 -203s72 -204 173 -204z" />
    <glyph glyph-name="agrave.alt" 
d="M395 576h-58l-142 126l79 18zM480 517h75v-517h-75v97c-39 -68 -105 -109 -188 -109c-136 0 -238 112 -238 271c0 158 102 270 238 270c83 0 149 -41 188 -109v97zM306 55c102 0 174 85 174 204s-72 203 -174 203c-101 0 -173 -84 -173 -203s72 -204 173 -204z" />
    <glyph glyph-name="amacron.alt" 
d="M480 649v-55h-310v55h310zM480 517h75v-517h-75v97c-39 -68 -105 -109 -188 -109c-136 0 -238 112 -238 271c0 158 102 270 238 270c83 0 149 -41 188 -109v97zM306 55c102 0 174 85 174 204s-72 203 -174 203c-101 0 -173 -84 -173 -203s72 -204 173 -204z" />
    <glyph glyph-name="aogonek.alt" 
d="M602 -95l32 -49c-23 -19 -52 -29 -84 -29c-64 0 -109 40 -109 107c0 32 17 62 39 77v86c-39 -68 -105 -109 -188 -109c-136 0 -238 112 -238 271c0 158 102 270 238 270c83 0 149 -41 188 -109v97h75v-517c-34 0 -58 -24 -58 -57c0 -35 21 -57 58 -57c21 0 37 8 47 19z
M306 55c102 0 174 85 174 204s-72 203 -174 203c-101 0 -173 -84 -173 -203s72 -204 173 -204z" />
    <glyph glyph-name="aring.alt" 
d="M325 589c-57 0 -103 46 -103 103s46 103 103 103s103 -46 103 -103s-46 -103 -103 -103zM325 751c-32 0 -59 -27 -59 -59s27 -59 59 -59s59 27 59 59s-27 59 -59 59zM480 517h75v-517h-75v97c-39 -68 -105 -109 -188 -109c-136 0 -238 112 -238 271
c0 158 102 270 238 270c83 0 149 -41 188 -109v97zM306 55c102 0 174 85 174 204s-72 203 -174 203c-101 0 -173 -84 -173 -203s72 -204 173 -204z" />
    <glyph glyph-name="atilde.alt" 
d="M260 641c-26 0 -42 -20 -50 -68l-46 7c10 76 41 119 96 119c59 0 88 -66 129 -66c26 0 42 20 50 68l46 -7c-10 -76 -41 -119 -96 -119c-59 0 -88 66 -129 66zM480 517h75v-517h-75v97c-39 -68 -105 -109 -188 -109c-136 0 -238 112 -238 271c0 158 102 270 238 270
c83 0 149 -41 188 -109v97zM306 55c102 0 174 85 174 204s-72 203 -174 203c-101 0 -173 -84 -173 -203s72 -204 173 -204z" />
    <glyph glyph-name="zero" unicode="0" horiz-adv-x="689" 
d="M345 -12c-168 0 -286 147 -286 356c0 208 118 355 286 355c167 0 285 -147 285 -355c0 -209 -118 -356 -285 -356zM345 60c121 0 206 118 206 284s-85 283 -206 283s-207 -117 -207 -283s86 -284 207 -284z" />
    <glyph glyph-name="one" unicode="1" horiz-adv-x="353" 
d="M180 0v592l-120 -78l-34 58l169 115h63v-687h-78z" />
    <glyph glyph-name="two" unicode="2" horiz-adv-x="589" 
d="M49 0v65l251 214c97 83 137 149 137 217c0 84 -70 133 -143 133c-80 0 -137 -43 -184 -107l-55 45c57 81 134 132 242 132c119 0 219 -79 219 -202c0 -93 -46 -167 -162 -267l-180 -156h349v-74h-474z" />
    <glyph glyph-name="three" unicode="3" horiz-adv-x="586" 
d="M290 -12c-113 0 -200 52 -250 118l54 51c45 -58 112 -98 196 -98c96 0 160 53 160 131c0 81 -69 122 -177 122h-73v72l74 -1c92 -1 161 43 161 121c0 72 -66 124 -152 124c-76 0 -130 -38 -179 -97l-52 47c52 69 128 121 235 121c131 0 227 -76 227 -186
c0 -88 -62 -140 -133 -161c70 -16 148 -67 148 -166c0 -115 -96 -198 -239 -198z" />
    <glyph glyph-name="four" unicode="4" horiz-adv-x="623" 
d="M393 0v167h-343l-10 65l341 455h90v-449h103v-71h-103v-167h-78zM129 238h264v355z" />
    <glyph glyph-name="five" unicode="5" horiz-adv-x="599" 
d="M298 -12c-106 0 -186 45 -242 109l51 57c53 -58 118 -96 194 -96c95 0 162 66 162 153c0 88 -68 148 -164 148c-59 0 -110 -21 -153 -53l-57 28l10 353h406v-74h-330l-7 -231c37 25 84 46 147 46c124 0 227 -78 227 -214s-103 -226 -244 -226z" />
    <glyph glyph-name="six" unicode="6" horiz-adv-x="623" 
d="M333 429c125 0 230 -78 230 -214c0 -127 -99 -227 -242 -227c-186 0 -261 151 -261 345c0 205 122 366 278 366c84 0 144 -33 195 -82l-43 -61c-43 42 -88 72 -154 72c-110 0 -197 -130 -197 -295v-9c42 66 113 105 194 105zM320 55c103 0 164 80 164 156
c0 94 -73 151 -165 151c-87 0 -154 -52 -171 -128c20 -104 76 -179 172 -179z" />
    <glyph glyph-name="seven" unicode="7" horiz-adv-x="600" 
d="M138 0l293 613h-372v74h465v-59l-296 -628h-90z" />
    <glyph glyph-name="eight" unicode="8" horiz-adv-x="606" 
d="M303 -12c-142 0 -251 76 -251 192c0 86 68 148 152 175c-78 30 -134 83 -134 162c0 114 114 182 233 182c123 0 234 -70 234 -183c0 -84 -63 -135 -134 -161c83 -28 151 -89 151 -175c0 -117 -110 -192 -251 -192zM303 386c67 4 155 45 155 123c0 69 -69 119 -155 119
s-154 -50 -154 -119c0 -80 89 -119 154 -123zM303 59c95 0 172 51 172 126c0 83 -100 131 -172 133c-71 -2 -172 -50 -172 -133c0 -75 77 -126 172 -126z" />
    <glyph glyph-name="nine" unicode="9" horiz-adv-x="623" 
d="M302 699c186 0 261 -151 261 -345c0 -205 -122 -366 -278 -366c-84 0 -144 33 -195 82l43 61c43 -42 88 -72 154 -72c110 0 197 130 197 295v9c-42 -66 -113 -105 -194 -105c-125 0 -230 78 -230 214c0 127 99 227 242 227zM304 325c87 0 154 52 171 128
c-20 104 -76 179 -172 179c-103 0 -164 -80 -164 -156c0 -94 73 -151 165 -151z" />
    <glyph glyph-name="asterisk" unicode="*" horiz-adv-x="409" 
d="M204 376c-14 0 -25 10 -25 22c0 42 11 83 16 125c-34 -25 -64 -55 -100 -76c-10 -6 -25 -1 -32 11s-3 26 7 32c36 21 77 32 116 49c-39 17 -80 28 -116 49c-10 6 -14 20 -7 32s22 17 32 11c36 -21 66 -51 100 -76c-5 42 -16 83 -16 125c0 12 11 22 25 22s25 -10 25 -22
c0 -42 -11 -83 -16 -125c34 25 64 55 100 76c10 6 25 1 32 -11s3 -26 -7 -32c-36 -21 -77 -32 -116 -49c39 -17 80 -28 116 -49c10 -6 14 -20 7 -32s-22 -17 -32 -11c-36 21 -66 51 -100 76c5 -42 16 -83 16 -125c0 -12 -11 -22 -25 -22z" />
    <glyph glyph-name="backslash" unicode="\" horiz-adv-x="415" 
d="M346 -74l-351 817h85l351 -817h-85z" />
    <glyph glyph-name="colon" unicode=":" horiz-adv-x="253" 
d="M128 403c-31 0 -55 25 -55 55c0 28 24 53 55 53c29 0 53 -25 53 -53c0 -30 -24 -55 -53 -55zM128 -12c-31 0 -55 25 -55 55c0 28 24 53 55 53c29 0 53 -25 53 -53c0 -30 -24 -55 -53 -55z" />
    <glyph glyph-name="comma" unicode="," horiz-adv-x="264" 
d="M116 -133l-37 28c27 31 44 62 52 93c-30 0 -54 25 -54 55c0 28 23 53 55 53c38 0 61 -34 61 -80c0 -40 -17 -74 -77 -149z" />
    <glyph glyph-name="ellipsis" unicode="&#x2026;" horiz-adv-x="654" 
d="M128 -12c-31 0 -55 25 -55 55c0 28 24 53 55 53c29 0 53 -25 53 -53c0 -30 -24 -55 -53 -55zM328 -12c-31 0 -55 25 -55 55c0 28 24 53 55 53c29 0 53 -25 53 -53c0 -30 -24 -55 -53 -55zM528 -12c-31 0 -55 25 -55 55c0 28 24 53 55 53c29 0 53 -25 53 -53
c0 -30 -24 -55 -53 -55z" />
    <glyph glyph-name="exclam" unicode="!" horiz-adv-x="273" 
d="M112 193l-19 494h92l-20 -494h-53zM138 -12c-31 0 -55 25 -55 55c0 28 24 53 55 53c29 0 53 -25 53 -53c0 -30 -24 -55 -53 -55z" />
    <glyph glyph-name="exclamdown" unicode="&#xa1;" horiz-adv-x="273" 
d="M135 529c31 0 55 -25 55 -55c0 -28 -24 -53 -55 -53c-29 0 -53 25 -53 53c0 30 24 55 53 55zM161 324l19 -494h-92l20 494h53z" />
    <glyph glyph-name="numbersign" unicode="#" horiz-adv-x="674" 
d="M619 446h-118l-52 -206h118l-15 -61h-118l-45 -179h-66l45 179h-150l-45 -179h-66l45 179h-113l15 61h113l52 206h-114l15 61h115l45 180h66l-45 -180h150l45 180h66l-45 -180h117zM383 240l52 206h-150l-52 -206h150z" />
    <glyph glyph-name="period" unicode="." horiz-adv-x="253" 
d="M128 -12c-31 0 -55 25 -55 55c0 28 24 53 55 53c29 0 53 -25 53 -53c0 -30 -24 -55 -53 -55z" />
    <glyph glyph-name="question" unicode="?" horiz-adv-x="507" 
d="M184 193v187c117 10 200 64 200 129c0 61 -51 119 -135 119c-75 0 -127 -41 -171 -95l-51 51c53 66 125 115 226 115c127 0 210 -81 210 -183c0 -89 -83 -170 -200 -195v-128h-79zM224 -12c-31 0 -55 25 -55 55c0 28 24 53 55 53c29 0 53 -25 53 -53
c0 -30 -24 -55 -53 -55z" />
    <glyph glyph-name="questiondown" unicode="&#xbf;" horiz-adv-x="507" 
d="M283 529c31 0 55 -25 55 -55c0 -28 -24 -53 -55 -53c-29 0 -53 25 -53 53c0 30 24 55 53 55zM323 324v-187c-117 -10 -200 -64 -200 -129c0 -61 51 -119 135 -119c75 0 127 41 171 95l51 -51c-53 -66 -125 -115 -226 -115c-127 0 -210 81 -210 183c0 89 83 170 200 195
v128h79z" />
    <glyph glyph-name="quotedbl" unicode="&#x22;" horiz-adv-x="414" 
d="M95 429c-8 58 -24 150 -24 200c0 25 21 46 46 46s46 -21 46 -46c0 -50 -16 -142 -24 -200h-44zM275 429c-8 58 -24 150 -24 200c0 25 21 46 46 46s46 -21 46 -46c0 -50 -16 -142 -24 -200h-44z" />
    <glyph glyph-name="quotesingle" unicode="'" horiz-adv-x="234" 
d="M95 429c-8 58 -24 150 -24 200c0 25 21 46 46 46s46 -21 46 -46c0 -50 -16 -142 -24 -200h-44z" />
    <glyph glyph-name="semicolon" unicode=";" horiz-adv-x="264" 
d="M132 403c-31 0 -55 25 -55 55c0 28 24 53 55 53c29 0 53 -25 53 -53c0 -30 -24 -55 -53 -55zM116 -133l-37 28c27 31 44 62 52 93c-30 0 -54 25 -54 55c0 28 23 53 55 53c38 0 61 -34 61 -80c0 -40 -17 -74 -77 -149z" />
    <glyph glyph-name="slash" unicode="/" horiz-adv-x="415" 
d="M-16 -74l351 817h85l-351 -817h-85z" />
    <glyph glyph-name="underscore" unicode="_" horiz-adv-x="592" 
d="M-2 -142v67h596v-67h-596z" />
    <glyph glyph-name="braceleft" unicode="{" horiz-adv-x="394" 
d="M342 -166c-155 17 -201 66 -201 169v141c0 67 -27 94 -98 94v55c72 0 98 29 98 95v140c0 104 47 152 201 169l6 -53c-119 -18 -142 -41 -142 -120l1 -144c0 -63 -26 -97 -75 -114c50 -18 75 -52 75 -115l-1 -143c0 -81 25 -103 142 -121z" />
    <glyph glyph-name="braceright" unicode="}" horiz-adv-x="394" 
d="M52 -166l-6 53c117 18 142 40 142 121l-1 143c0 63 25 97 75 115c-49 17 -75 51 -75 114l1 144c0 79 -23 102 -142 120l6 53c154 -17 201 -65 201 -169v-140c0 -66 26 -95 98 -95v-55c-71 0 -98 -27 -98 -94v-141c0 -103 -46 -152 -201 -169z" />
    <glyph glyph-name="bracketleft" unicode="[" horiz-adv-x="366" 
d="M81 -115v849h236v-57h-170v-735h170v-57h-236z" />
    <glyph glyph-name="bracketright" unicode="]" horiz-adv-x="366" 
d="M49 -115v57h170v735h-170v57h236v-849h-236z" />
    <glyph glyph-name="parenleft" unicode="(" horiz-adv-x="357" 
d="M271 -170c-134 112 -209 263 -209 435c0 173 75 323 209 435l40 -42c-109 -112 -169 -229 -169 -393c0 -163 60 -281 169 -392z" />
    <glyph glyph-name="parenright" unicode=")" horiz-adv-x="357" 
d="M86 -170l-40 43c109 111 169 229 169 392c0 164 -60 281 -169 393l40 42c134 -112 209 -262 209 -435c0 -172 -75 -323 -209 -435z" />
    <glyph glyph-name="emdash" unicode="&#x2014;" horiz-adv-x="882" 
d="M56 236v71h770v-71h-770z" />
    <glyph glyph-name="endash" unicode="&#x2013;" horiz-adv-x="577" 
d="M56 236v71h465v-71h-465z" />
    <glyph glyph-name="hyphen" unicode="-" horiz-adv-x="371" 
d="M56 235v73h259v-73h-259z" />
    <glyph glyph-name="quotedblleft" unicode="&#x201c;" horiz-adv-x="464" 
d="M148 673l37 -28c-27 -31 -44 -62 -52 -93c30 0 54 -25 54 -55c0 -28 -23 -53 -55 -53c-38 0 -61 34 -61 80c0 40 17 74 77 149zM348 673l37 -28c-27 -31 -44 -62 -52 -93c30 0 54 -25 54 -55c0 -28 -23 -53 -55 -53c-38 0 -61 34 -61 80c0 40 17 74 77 149z" />
    <glyph glyph-name="quotedblright" unicode="&#x201d;" horiz-adv-x="464" 
d="M116 446l-37 28c27 31 44 62 52 93c-30 0 -54 25 -54 55c0 28 23 53 55 53c38 0 61 -34 61 -80c0 -40 -17 -74 -77 -149zM316 446l-37 28c27 31 44 62 52 93c-30 0 -54 25 -54 55c0 28 23 53 55 53c38 0 61 -34 61 -80c0 -40 -17 -74 -77 -149z" />
    <glyph glyph-name="quoteleft" unicode="&#x2018;" horiz-adv-x="264" 
d="M148 673l37 -28c-27 -31 -44 -62 -52 -93c30 0 54 -25 54 -55c0 -28 -23 -53 -55 -53c-38 0 -61 34 -61 80c0 40 17 74 77 149z" />
    <glyph glyph-name="quoteright" unicode="&#x2019;" horiz-adv-x="264" 
d="M116 446l-37 28c27 31 44 62 52 93c-30 0 -54 25 -54 55c0 28 23 53 55 53c38 0 61 -34 61 -80c0 -40 -17 -74 -77 -149z" />
    <glyph glyph-name="space" unicode=" " horiz-adv-x="290" 
 />
    <glyph glyph-name="cent" unicode="&#xa2;" horiz-adv-x="542" 
d="M503 67c-43 -43 -99 -71 -161 -78v-63h-78v67c-121 26 -216 137 -216 266s95 240 216 265v65h78v-61c60 -7 115 -34 158 -75l-52 -51c-28 31 -65 52 -106 58v-403c42 7 80 29 109 61zM127 259c0 -92 59 -171 137 -196v391c-78 -25 -137 -104 -137 -195z" />
    <glyph glyph-name="dollar" unicode="$" horiz-adv-x="613" 
d="M559 187c0 -103 -73 -188 -217 -197v-64h-78v66c-88 11 -160 49 -218 106l49 61c46 -46 100 -81 169 -94v253c-120 31 -194 76 -194 186c0 100 81 180 194 194v61h78v-61c81 -10 145 -46 199 -96l-48 -61c-45 43 -96 73 -151 83v-240c127 -31 217 -78 217 -197zM149 510
c0 -55 41 -83 115 -105v221c-68 -12 -115 -61 -115 -116zM342 61c91 7 138 61 138 119c0 63 -48 93 -138 118v-237z" />
    <glyph glyph-name="Euro" unicode="&#x20ac;" horiz-adv-x="680" 
d="M404 60c75 0 144 34 194 87l53 -54c-64 -64 -152 -105 -247 -105c-153 0 -288 106 -335 248h-93v67h78c-1 13 -2 27 -2 41c0 20 2 40 5 59h-81v67h100c52 133 181 229 328 229c95 0 183 -40 247 -105l-53 -54c-50 53 -119 87 -194 87c-105 0 -198 -65 -243 -157h311v-67
h-335c-4 -19 -6 -39 -6 -59c0 -14 1 -28 3 -41h338v-67h-320c42 -102 141 -176 252 -176z" />
    <glyph glyph-name="sterling" unicode="&#xa3;" horiz-adv-x="619" 
d="M198 74h375v-74h-518v38l65 36v187h-62v67h62v135c0 138 90 236 217 236c92 0 179 -47 211 -114l-57 -56c-17 58 -81 99 -154 99c-81 0 -139 -68 -139 -165v-135h202v-67h-202v-187z" />
    <glyph glyph-name="yen" unicode="&#xa5;" horiz-adv-x="671" 
d="M653 687l-243 -358h174v-67h-207v-80h207v-67h-207v-115h-82v115h-207v67h207v80h-207v67h174l-244 358h97l221 -333l223 333h94z" />
    <glyph glyph-name="plus" unicode="+" horiz-adv-x="593" 
d="M526 371v-74h-192v-192h-75v192h-192v74h192v193h75v-193h192z" />
    <glyph glyph-name="minus" unicode="&#x2212;" horiz-adv-x="593" 
d="M67 297v74h459v-74h-459z" />
    <glyph glyph-name="multiply" unicode="&#xd7;" horiz-adv-x="541" 
d="M459 470l-135 -135l135 -136l-53 -53l-135 136l-136 -136l-53 52l136 136l-136 136l53 53l136 -136l136 136z" />
    <glyph glyph-name="divide" unicode="&#xf7;" horiz-adv-x="593" 
d="M298 442c-31 0 -55 25 -55 55c0 28 24 53 55 53c29 0 53 -25 53 -53c0 -30 -24 -55 -53 -55zM67 297v74h459v-74h-459zM298 118c-31 0 -55 25 -55 55c0 28 24 53 55 53c29 0 53 -25 53 -53c0 -30 -24 -55 -53 -55z" />
    <glyph glyph-name="equal" unicode="=" horiz-adv-x="593" 
d="M67 407v74h459v-74h-459zM67 187v74h459v-74h-459z" />
    <glyph glyph-name="greater" unicode="&#x3e;" horiz-adv-x="586" 
d="M76 88v71l381 185l-381 185v70l455 -226v-59z" />
    <glyph glyph-name="less" unicode="&#x3c;" horiz-adv-x="586" 
d="M510 88l-455 226v59l455 226v-70l-381 -185l381 -185v-71z" />
    <glyph glyph-name="asciitilde" unicode="~" horiz-adv-x="445" 
d="M287 300c-59 0 -88 66 -129 66c-26 0 -42 -20 -50 -68l-46 7c10 76 41 119 96 119c59 0 88 -66 129 -66c26 0 42 20 50 68l46 -7c-10 -76 -41 -119 -96 -119z" />
    <glyph glyph-name="percent" unicode="%" horiz-adv-x="796" 
d="M206 349c-95 0 -159 77 -159 170c0 99 67 174 160 174c95 0 159 -77 159 -172c0 -97 -66 -172 -160 -172zM131 0l470 687h66l-470 -687h-66zM207 403c56 0 96 50 96 117c0 68 -41 119 -97 119s-96 -50 -96 -119c0 -66 42 -117 97 -117zM588 -10c-92 0 -159 74 -159 172
c0 94 65 172 160 172s159 -78 159 -171c0 -98 -67 -173 -160 -173zM589 44c57 0 96 50 96 118c0 67 -41 118 -97 118c-57 0 -96 -52 -96 -117c0 -68 40 -119 97 -119z" />
    <glyph glyph-name="perthousand" unicode="&#x2030;" horiz-adv-x="1169" 
d="M206 349c-95 0 -159 77 -159 170c0 99 67 174 160 174c95 0 159 -77 159 -172c0 -97 -66 -172 -160 -172zM131 0l470 687h66l-470 -687h-66zM207 403c56 0 96 50 96 117c0 68 -41 119 -97 119s-96 -50 -96 -119c0 -66 42 -117 97 -117zM588 -10c-92 0 -159 74 -159 172
c0 94 65 172 160 172s159 -78 159 -171c0 -98 -67 -173 -160 -173zM961 -10c-92 0 -159 74 -159 172c0 94 65 172 160 172s159 -78 159 -171c0 -98 -67 -173 -160 -173zM589 44c57 0 96 50 96 118c0 67 -41 118 -97 118c-57 0 -96 -52 -96 -117c0 -68 40 -119 97 -119z
M962 44c57 0 96 50 96 118c0 67 -41 118 -97 118c-57 0 -96 -52 -96 -117c0 -68 40 -119 97 -119z" />
    <glyph glyph-name="at" unicode="@" horiz-adv-x="881" 
d="M426 -116c-207 0 -382 171 -382 375c0 226 191 416 418 416c204 0 375 -163 375 -356c0 -163 -92 -241 -180 -241c-62 0 -104 33 -115 86c-37 -48 -93 -86 -162 -86c-96 0 -166 69 -166 173c0 140 117 250 233 250c71 0 115 -38 137 -81l13 66l67 -5
c-31 -159 -53 -265 -53 -290c0 -42 26 -66 66 -66c55 0 124 54 124 194c0 174 -156 320 -341 320c-205 0 -378 -173 -378 -379c0 -185 158 -341 346 -341c82 0 143 17 216 61l18 -27c-77 -49 -145 -69 -236 -69zM398 137c94 0 154 77 164 174c8 80 -27 131 -106 131
c-92 0 -170 -87 -170 -187c0 -71 44 -118 112 -118z" />
    <glyph glyph-name="ampersand" unicode="&#x26;" horiz-adv-x="670" 
d="M628 26l-71 -33l-90 91c-57 -59 -125 -96 -210 -96c-122 0 -216 74 -216 194c0 89 51 154 157 201c-39 54 -58 100 -58 151c0 90 72 161 175 161c92 0 162 -73 162 -159c0 -91 -70 -134 -168 -173c47 -55 95 -107 157 -172c30 45 57 97 78 154l65 -29
c-29 -64 -60 -124 -95 -174zM315 628c-57 0 -100 -35 -100 -94c0 -36 17 -76 54 -123c92 36 133 66 133 123c0 53 -36 94 -87 94zM260 55c60 0 113 29 159 78c-82 85 -134 142 -182 200c-75 -35 -121 -85 -121 -149c0 -81 66 -129 144 -129z" />
    <glyph glyph-name="bar" unicode="|" horiz-adv-x="278" 
d="M109 -74v817h60v-817h-60z" />
    <glyph glyph-name="asciicircum" unicode="^" horiz-adv-x="490" 
d="M54 413l162 274h59l161 -274h-65l-126 219l-127 -219h-64z" />
    <glyph glyph-name="uni0326" unicode="&#x326;" horiz-adv-x="0" 
d="M-142 -275l-32 23c23 26 38 52 44 79c-25 0 -45 21 -45 46c0 24 20 45 46 45c32 0 52 -28 52 -68c0 -33 -15 -61 -65 -125z" />
    <glyph glyph-name="acute" unicode="&#xb4;" horiz-adv-x="326" 
d="M63 576l121 144l79 -18l-142 -126h-58z" />
    <glyph glyph-name="breve" unicode="&#x2d8;" horiz-adv-x="418" 
d="M209 589c-53 0 -105 20 -146 60l47 47c27 -26 64 -42 99 -42s72 16 99 42l47 -47c-40 -40 -93 -60 -146 -60z" />
    <glyph glyph-name="caron" unicode="&#x2c7;" horiz-adv-x="398" 
d="M163 576l-100 137h57l78 -86l79 86h58l-102 -137h-70z" />
    <glyph glyph-name="cedilla" unicode="&#xb8;" horiz-adv-x="312" 
d="M180 -45c40 0 69 -27 69 -66c0 -49 -43 -81 -98 -81c-35 0 -68 12 -88 28l19 42c20 -16 43 -23 65 -23c29 0 50 16 50 38c0 19 -12 34 -39 34c-12 0 -25 -4 -34 -11l-16 17l33 78h52l-24 -57c4 1 7 1 11 1z" />
    <glyph glyph-name="circumflex" unicode="&#x2c6;" horiz-adv-x="398" 
d="M63 576l100 137h70l102 -137h-58l-79 86l-78 -86h-57z" />
    <glyph glyph-name="dieresis" unicode="&#xa8;" horiz-adv-x="410" 
d="M109 597c-26 0 -46 21 -46 46c0 24 20 46 46 46c25 0 46 -22 46 -46c0 -25 -21 -46 -46 -46zM301 597c-26 0 -46 21 -46 46c0 24 20 46 46 46c25 0 46 -22 46 -46c0 -25 -21 -46 -46 -46z" />
    <glyph glyph-name="dotaccent" unicode="&#x2d9;" horiz-adv-x="218" 
d="M109 597c-26 0 -46 21 -46 46c0 24 20 46 46 46c25 0 46 -22 46 -46c0 -25 -21 -46 -46 -46z" />
    <glyph glyph-name="grave" unicode="`" horiz-adv-x="326" 
d="M205 576l-142 126l79 18l121 -144h-58z" />
    <glyph glyph-name="hungarumlaut" unicode="&#x2dd;" horiz-adv-x="527" 
d="M63 575l121 145l79 -18l-142 -127h-58zM263 575l121 143l79 -18l-142 -125h-58z" />
    <glyph glyph-name="macron" unicode="&#xaf;" horiz-adv-x="436" 
d="M63 594v55h310v-55h-310z" />
    <glyph glyph-name="ogonek" unicode="&#x2db;" horiz-adv-x="319" 
d="M172 -173c-64 0 -109 40 -109 107c0 39 24 73 53 85l61 -19c-34 0 -58 -24 -58 -57c0 -35 21 -57 58 -57c21 0 37 8 47 19l32 -49c-23 -19 -52 -29 -84 -29z" />
    <glyph glyph-name="ring" unicode="&#x2da;" horiz-adv-x="332" 
d="M166 589c-57 0 -103 46 -103 103s46 103 103 103s103 -46 103 -103s-46 -103 -103 -103zM166 633c32 0 59 27 59 59s-27 59 -59 59s-59 -27 -59 -59s27 -59 59 -59z" />
    <glyph glyph-name="tilde" unicode="&#x2dc;" horiz-adv-x="451" 
d="M290 575c-59 0 -88 66 -129 66c-26 0 -42 -20 -50 -68l-46 7c10 76 41 119 96 119c59 0 88 -66 129 -66c26 0 42 20 50 68l46 -7c-10 -76 -41 -119 -96 -119z" />
    <glyph glyph-name="ascender" 
d="M83 0v699h75v-699h-75z" />
    <glyph glyph-name="descender" 
d="M83 -172v689h75v-689h-75z" />
    <hkern u1="Y" u2="c" k="114" />
    <hkern u1="&#xdd;" u2="c" k="114" />
    <hkern u1="&#x176;" u2="c" k="114" />
    <hkern u1="&#x178;" u2="c" k="114" />
    <hkern u1="&#x1ef2;" u2="c" k="114" />
    <hkern u1="\" u2="&#x2f;" k="-70" />
    <hkern u1="\" u2="\" k="125" />
    <hkern u1="&#x2f;" u2="&#x2f;" k="125" />
    <hkern g1="A,Aacute,Abreve,Acircumflex,Adieresis,Agrave,Amacron,Aogonek,Aring,Atilde"
	g2="G,Gbreve,Gcommaaccent"
	k="19" />
    <hkern g1="A,Aacute,Abreve,Acircumflex,Adieresis,Agrave,Amacron,Aogonek,Aring,Atilde"
	g2="T,Tcaron,uni0162"
	k="62" />
    <hkern g1="A,Aacute,Abreve,Acircumflex,Adieresis,Agrave,Amacron,Aogonek,Aring,Atilde"
	g2="V"
	k="89" />
    <hkern g1="A,Aacute,Abreve,Acircumflex,Adieresis,Agrave,Amacron,Aogonek,Aring,Atilde"
	g2="W,Wacute,Wcircumflex,Wdieresis,Wgrave"
	k="40" />
    <hkern g1="A,Aacute,Abreve,Acircumflex,Adieresis,Agrave,Amacron,Aogonek,Aring,Atilde"
	g2="Y,Yacute,Ycircumflex,Ydieresis,Ygrave"
	k="35" />
    <hkern g1="C,Cacute,Ccaron,Ccedilla"
	g2="O,Oacute,Ocircumflex,Odieresis,Ograve,Omacron,Oslash,Otilde,OE"
	k="15" />
    <hkern g1="D,Dcaron"
	g2="A,Aacute,Abreve,Acircumflex,Adieresis,Agrave,Amacron,Aogonek,Aring,Atilde,AE"
	k="53" />
    <hkern g1="K"
	g2="O,Oacute,Ocircumflex,Odieresis,Ograve,Omacron,Oslash,Otilde,OE"
	k="30" />
    <hkern g1="K"
	g2="A,Aacute,Abreve,Acircumflex,Adieresis,Agrave,Amacron,Aogonek,Aring,Atilde,AE"
	k="-20" />
    <hkern g1="L,Lacute,Lcaron"
	g2="T,Tcaron,uni0162"
	k="27" />
    <hkern g1="L,Lacute,Lcaron"
	g2="V"
	k="109" />
    <hkern g1="O,Oacute,Ocircumflex,Odieresis,Ograve,Omacron,Oslash,Otilde"
	g2="W,Wacute,Wcircumflex,Wdieresis,Wgrave"
	k="25" />
    <hkern g1="R,Racute,Rcaron,Rcommaaccent"
	g2="Y,Yacute,Ycircumflex,Ydieresis,Ygrave"
	k="35" />
    <hkern g1="T,Tcaron,uni0162"
	g2="O,Oacute,Ocircumflex,Odieresis,Ograve,Omacron,Oslash,Otilde,OE"
	k="43" />
    <hkern g1="T,Tcaron,uni0162"
	g2="A,Aacute,Abreve,Acircumflex,Adieresis,Agrave,Amacron,Aogonek,Aring,Atilde,AE"
	k="70" />
    <hkern g1="V"
	g2="A,Aacute,Abreve,Acircumflex,Adieresis,Agrave,Amacron,Aogonek,Aring,Atilde,AE"
	k="89" />
    <hkern g1="V"
	g2="a,aacute,abreve,acircumflex,adieresis,agrave,amacron,aogonek,aring,atilde,ae"
	k="30" />
    <hkern g1="V"
	g2="c,cacute,ccaron,ccedilla"
	k="68" />
    <hkern g1="V"
	g2="e,eacute,ecaron,ecircumflex,edieresis,edotaccent,uni1EB9,egrave,emacron,eogonek,uni1EBD"
	k="68" />
    <hkern g1="V"
	g2="o,oacute,ocircumflex,odieresis,ograve,omacron,oslash,otilde"
	k="68" />
    <hkern g1="W,Wacute,Wcircumflex,Wdieresis,Wgrave"
	g2="A,Aacute,Abreve,Acircumflex,Adieresis,Agrave,Amacron,Aogonek,Aring,Atilde,AE"
	k="40" />
    <hkern g1="W,Wacute,Wcircumflex,Wdieresis,Wgrave"
	g2="c,cacute,ccaron,ccedilla"
	k="55" />
    <hkern g1="W,Wacute,Wcircumflex,Wdieresis,Wgrave"
	g2="e,eacute,ecaron,ecircumflex,edieresis,edotaccent,uni1EB9,egrave,emacron,eogonek,uni1EBD"
	k="55" />
    <hkern g1="W,Wacute,Wcircumflex,Wdieresis,Wgrave"
	g2="o,oacute,ocircumflex,odieresis,ograve,omacron,oslash,otilde"
	k="55" />
    <hkern g1="Y,Yacute,Ycircumflex,Ydieresis,Ygrave"
	g2="A,Aacute,Abreve,Acircumflex,Adieresis,Agrave,Amacron,Aogonek,Aring,Atilde,AE"
	k="35" />
    <hkern g1="Y,Yacute,Ycircumflex,Ydieresis,Ygrave"
	g2="e,eacute,ecaron,ecircumflex,edieresis,edotaccent,uni1EB9,egrave,emacron,eogonek,uni1EBD"
	k="114" />
    <hkern g1="Y,Yacute,Ycircumflex,Ydieresis,Ygrave"
	g2="o,oacute,ocircumflex,odieresis,ograve,omacron,oslash,otilde"
	k="114" />
    <hkern g1="c,cacute,ccaron,ccedilla"
	g2="V"
	k="68" />
    <hkern g1="c,cacute,ccaron,ccedilla"
	g2="W,Wacute,Wcircumflex,Wdieresis,Wgrave"
	k="55" />
    <hkern g1="c,cacute,ccaron,ccedilla"
	g2="Y,Yacute,Ycircumflex,Ydieresis,Ygrave"
	k="114" />
    <hkern g1="c,cacute,ccaron,ccedilla"
	g2="o,oacute,ocircumflex,odieresis,ograve,omacron,oslash,otilde"
	k="11" />
    <hkern g1="ae,e,eacute,ecaron,ecircumflex,edieresis,edotaccent,uni1EB9,egrave,emacron,eogonek,uni1EBD"
	g2="V"
	k="68" />
    <hkern g1="ae,e,eacute,ecaron,ecircumflex,edieresis,edotaccent,uni1EB9,egrave,emacron,eogonek,uni1EBD"
	g2="W,Wacute,Wcircumflex,Wdieresis,Wgrave"
	k="55" />
    <hkern g1="ae,e,eacute,ecaron,ecircumflex,edieresis,edotaccent,uni1EB9,egrave,emacron,eogonek,uni1EBD"
	g2="Y,Yacute,Ycircumflex,Ydieresis,Ygrave"
	k="114" />
    <hkern g1="ae,e,eacute,ecaron,ecircumflex,edieresis,edotaccent,uni1EB9,egrave,emacron,eogonek,uni1EBD"
	g2="w,wacute,wcircumflex,wdieresis,wgrave"
	k="25" />
    <hkern g1="o,oacute,ocircumflex,odieresis,ograve,omacron,oslash,otilde"
	g2="V"
	k="68" />
    <hkern g1="o,oacute,ocircumflex,odieresis,ograve,omacron,oslash,otilde"
	g2="W,Wacute,Wcircumflex,Wdieresis,Wgrave"
	k="55" />
    <hkern g1="o,oacute,ocircumflex,odieresis,ograve,omacron,oslash,otilde"
	g2="Y,Yacute,Ycircumflex,Ydieresis,Ygrave"
	k="114" />
    <hkern g1="o,oacute,ocircumflex,odieresis,ograve,omacron,oslash,otilde"
	g2="w,wacute,wcircumflex,wdieresis,wgrave"
	k="20" />
    <hkern g1="o,oacute,ocircumflex,odieresis,ograve,omacron,oslash,otilde"
	g2="v"
	k="20" />
    <hkern g1="o,oacute,ocircumflex,odieresis,ograve,omacron,oslash,otilde"
	g2="y,yacute,ycircumflex,ydieresis,ygrave"
	k="20" />
    <hkern g1="r,racute,rcaron,rcommaaccent"
	g2="o,oacute,ocircumflex,odieresis,ograve,omacron,oslash,otilde"
	k="17" />
    <hkern g1="v"
	g2="o,oacute,ocircumflex,odieresis,ograve,omacron,oslash,otilde"
	k="20" />
    <hkern g1="v"
	g2="a,aacute,abreve,acircumflex,adieresis,agrave,amacron,aogonek,aring,atilde,ae"
	k="40" />
    <hkern g1="v"
	g2="d,dcaron,a.alt,aacute.alt,abreve.alt,acircumflex.alt,adieresis.alt,agrave.alt,amacron.alt,aogonek.alt,aring.alt,atilde.alt"
	k="19" />
    <hkern g1="v"
	g2="e,eacute,ecaron,ecircumflex,edieresis,edotaccent,uni1EB9,egrave,emacron,eogonek,uni1EBD"
	k="35" />
    <hkern g1="v"
	g2="comma"
	k="125" />
    <hkern g1="v"
	g2="period"
	k="125" />
    <hkern g1="w,wacute,wcircumflex,wdieresis,wgrave"
	g2="o,oacute,ocircumflex,odieresis,ograve,omacron,oslash,otilde"
	k="20" />
    <hkern g1="w,wacute,wcircumflex,wdieresis,wgrave"
	g2="e,eacute,ecaron,ecircumflex,edieresis,edotaccent,uni1EB9,egrave,emacron,eogonek,uni1EBD"
	k="25" />
    <hkern g1="w,wacute,wcircumflex,wdieresis,wgrave"
	g2="comma"
	k="100" />
    <hkern g1="w,wacute,wcircumflex,wdieresis,wgrave"
	g2="period"
	k="100" />
    <hkern g1="y,yacute,ycircumflex,ydieresis,ygrave"
	g2="o,oacute,ocircumflex,odieresis,ograve,omacron,oslash,otilde"
	k="20" />
    <hkern g1="y,yacute,ycircumflex,ydieresis,ygrave"
	g2="e,eacute,ecaron,ecircumflex,edieresis,edotaccent,uni1EB9,egrave,emacron,eogonek,uni1EBD"
	k="23" />
    <hkern g1="y,yacute,ycircumflex,ydieresis,ygrave"
	g2="comma"
	k="125" />
    <hkern g1="y,yacute,ycircumflex,ydieresis,ygrave"
	g2="period"
	k="125" />
  </font>
</defs></svg>
